<?xml version="1.0" encoding="UTF-8"?>
<model ref="r:bece54e7-d290-46c8-bfcb-c1eb4e33ad93(CPPLanguage.constraints)">
  <persistence version="9" />
  <languages>
    <use id="3f4bc5f5-c6c1-4a28-8b10-c83066ffa4a1" name="jetbrains.mps.lang.constraints" version="0" />
    <devkit ref="fbc25dd2-5da4-483a-8b19-70928e1b62d7(jetbrains.mps.devkit.general-purpose)" />
  </languages>
  <imports>
    <import index="4s7a" ref="r:c67970af-4844-47d5-9471-54e2bda5945e(CPPLanguage.structure)" implicit="true" />
  </imports>
  <registry>
    <language id="f3061a53-9226-4cc5-a443-f952ceaf5816" name="jetbrains.mps.baseLanguage">
      <concept id="1215693861676" name="jetbrains.mps.baseLanguage.structure.BaseAssignmentExpression" flags="nn" index="d038R">
        <child id="1068498886297" name="rValue" index="37vLTx" />
        <child id="1068498886295" name="lValue" index="37vLTJ" />
      </concept>
      <concept id="1197027756228" name="jetbrains.mps.baseLanguage.structure.DotExpression" flags="nn" index="2OqwBi">
        <child id="1197027771414" name="operand" index="2Oq$k0" />
        <child id="1197027833540" name="operation" index="2OqNvi" />
      </concept>
      <concept id="1137021947720" name="jetbrains.mps.baseLanguage.structure.ConceptFunction" flags="in" index="2VMwT0">
        <child id="1137022507850" name="body" index="2VODD2" />
      </concept>
      <concept id="1070534058343" name="jetbrains.mps.baseLanguage.structure.NullLiteral" flags="nn" index="10Nm6u" />
      <concept id="1070534934090" name="jetbrains.mps.baseLanguage.structure.CastExpression" flags="nn" index="10QFUN">
        <child id="1070534934091" name="type" index="10QFUM" />
        <child id="1070534934092" name="expression" index="10QFUP" />
      </concept>
      <concept id="1068431474542" name="jetbrains.mps.baseLanguage.structure.VariableDeclaration" flags="ng" index="33uBYm">
        <child id="1068431790190" name="initializer" index="33vP2m" />
      </concept>
      <concept id="1068498886296" name="jetbrains.mps.baseLanguage.structure.VariableReference" flags="nn" index="37vLTw">
        <reference id="1068581517664" name="variableDeclaration" index="3cqZAo" />
      </concept>
      <concept id="1068498886294" name="jetbrains.mps.baseLanguage.structure.AssignmentExpression" flags="nn" index="37vLTI" />
      <concept id="4972933694980447171" name="jetbrains.mps.baseLanguage.structure.BaseVariableDeclaration" flags="ng" index="19Szcq">
        <child id="5680397130376446158" name="type" index="1tU5fm" />
      </concept>
      <concept id="1068580123152" name="jetbrains.mps.baseLanguage.structure.EqualsExpression" flags="nn" index="3clFbC" />
      <concept id="1068580123155" name="jetbrains.mps.baseLanguage.structure.ExpressionStatement" flags="nn" index="3clFbF">
        <child id="1068580123156" name="expression" index="3clFbG" />
      </concept>
      <concept id="1068580123157" name="jetbrains.mps.baseLanguage.structure.Statement" flags="nn" index="3clFbH" />
      <concept id="1068580123159" name="jetbrains.mps.baseLanguage.structure.IfStatement" flags="nn" index="3clFbJ">
        <child id="1068580123160" name="condition" index="3clFbw" />
        <child id="1068580123161" name="ifTrue" index="3clFbx" />
      </concept>
      <concept id="1068580123136" name="jetbrains.mps.baseLanguage.structure.StatementList" flags="sn" stub="5293379017992965193" index="3clFbS">
        <child id="1068581517665" name="statement" index="3cqZAp" />
      </concept>
      <concept id="1068581242864" name="jetbrains.mps.baseLanguage.structure.LocalVariableDeclarationStatement" flags="nn" index="3cpWs8">
        <child id="1068581242865" name="localVariableDeclaration" index="3cpWs9" />
      </concept>
      <concept id="1068581242863" name="jetbrains.mps.baseLanguage.structure.LocalVariableDeclaration" flags="nr" index="3cpWsn" />
      <concept id="1081773326031" name="jetbrains.mps.baseLanguage.structure.BinaryOperation" flags="nn" index="3uHJSO">
        <child id="1081773367579" name="rightExpression" index="3uHU7w" />
        <child id="1081773367580" name="leftExpression" index="3uHU7B" />
      </concept>
      <concept id="1073239437375" name="jetbrains.mps.baseLanguage.structure.NotEqualsExpression" flags="nn" index="3y3z36" />
    </language>
    <language id="3f4bc5f5-c6c1-4a28-8b10-c83066ffa4a1" name="jetbrains.mps.lang.constraints">
      <concept id="1202989531578" name="jetbrains.mps.lang.constraints.structure.ConstraintFunction_CanBeAChild" flags="in" index="nKS2y" />
      <concept id="1147467115080" name="jetbrains.mps.lang.constraints.structure.NodePropertyConstraint" flags="ng" index="EnEH3">
        <reference id="1147467295099" name="applicableProperty" index="EomxK" />
        <child id="1152963095733" name="propertySetter" index="1LXaQT" />
      </concept>
      <concept id="1147468365020" name="jetbrains.mps.lang.constraints.structure.ConstraintsFunctionParameter_node" flags="nn" index="EsrRn" />
      <concept id="1152959968041" name="jetbrains.mps.lang.constraints.structure.ConstraintFunction_PropertySetter" flags="in" index="1LLf8_" />
      <concept id="1213093968558" name="jetbrains.mps.lang.constraints.structure.ConceptConstraints" flags="ng" index="1M2fIO">
        <reference id="1213093996982" name="concept" index="1M2myG" />
        <child id="1213098023997" name="property" index="1MhHOB" />
        <child id="1213106463729" name="canBeChild" index="1MLUbF" />
      </concept>
      <concept id="1153138554286" name="jetbrains.mps.lang.constraints.structure.ConstraintsFunctionParameter_propertyValue" flags="nn" index="1Wqviy" />
    </language>
    <language id="7866978e-a0f0-4cc7-81bc-4d213d9375e1" name="jetbrains.mps.lang.smodel">
      <concept id="1138055754698" name="jetbrains.mps.lang.smodel.structure.SNodeType" flags="in" index="3Tqbb2">
        <reference id="1138405853777" name="concept" index="ehGHo" />
      </concept>
      <concept id="1138056022639" name="jetbrains.mps.lang.smodel.structure.SPropertyAccess" flags="nn" index="3TrcHB">
        <reference id="1138056395725" name="property" index="3TsBF5" />
      </concept>
      <concept id="1138056143562" name="jetbrains.mps.lang.smodel.structure.SLinkAccess" flags="nn" index="3TrEf2">
        <reference id="1138056516764" name="link" index="3Tt5mk" />
      </concept>
    </language>
    <language id="ceab5195-25ea-4f22-9b92-103b95ca8c0c" name="jetbrains.mps.lang.core">
      <concept id="1169194658468" name="jetbrains.mps.lang.core.structure.INamedConcept" flags="ng" index="TrEIO">
        <property id="1169194664001" name="name" index="TrG5h" />
      </concept>
    </language>
  </registry>
  <node concept="1M2fIO" id="2NOvNR_vnM1">
    <ref role="1M2myG" to="4s7a:2s5q4UUgwr" resolve="TextContent" />
    <node concept="EnEH3" id="2NOvNR_vnM2" role="1MhHOB">
      <ref role="EomxK" to="4s7a:2s5q4UUuYU" resolve="text" />
      <node concept="1LLf8_" id="2NOvNR_vnM4" role="1LXaQT">
        <node concept="3clFbS" id="2NOvNR_vnM5" role="2VODD2">
          <node concept="3clFbJ" id="2NOvNR_vpw3" role="3cqZAp">
            <node concept="3clFbS" id="2NOvNR_vpw5" role="3clFbx">
              <node concept="3clFbF" id="2NOvNR_vqrS" role="3cqZAp">
                <node concept="37vLTI" id="2NOvNR_vr6y" role="3clFbG">
                  <node concept="2OqwBi" id="2NOvNR_vreR" role="37vLTx">
                    <node concept="EsrRn" id="2NOvNR_vr6Z" role="2Oq$k0" />
                    <node concept="3TrcHB" id="2NOvNR_vrzy" role="2OqNvi">
                      <ref role="3TsBF5" to="4s7a:2s5q4UUuYU" resolve="text" />
                    </node>
                  </node>
                  <node concept="2OqwBi" id="2NOvNR_vqxO" role="37vLTJ">
                    <node concept="EsrRn" id="2NOvNR_vqrQ" role="2Oq$k0" />
                    <node concept="3TrcHB" id="2NOvNR_vqKm" role="2OqNvi">
                      <ref role="3TsBF5" to="4s7a:2NOvNR_v8nc" resolve="oldText" />
                    </node>
                  </node>
                </node>
              </node>
            </node>
            <node concept="3clFbC" id="2NOvNR_vqjo" role="3clFbw">
              <node concept="2OqwBi" id="2NOvNR_vpEB" role="3uHU7B">
                <node concept="EsrRn" id="2NOvNR_vpyU" role="2Oq$k0" />
                <node concept="3TrcHB" id="2NOvNR_vpT9" role="2OqNvi">
                  <ref role="3TsBF5" to="4s7a:2NOvNR_v8nc" resolve="oldText" />
                </node>
              </node>
              <node concept="10Nm6u" id="2NOvNR_vqjA" role="3uHU7w" />
            </node>
          </node>
          <node concept="3clFbF" id="2NOvNR_voa1" role="3cqZAp">
            <node concept="37vLTI" id="2NOvNR_voOT" role="3clFbG">
              <node concept="1Wqviy" id="2NOvNR_voVD" role="37vLTx" />
              <node concept="2OqwBi" id="2NOvNR_vofX" role="37vLTJ">
                <node concept="EsrRn" id="2NOvNR_vo9Z" role="2Oq$k0" />
                <node concept="3TrcHB" id="2NOvNR_vouB" role="2OqNvi">
                  <ref role="3TsBF5" to="4s7a:2s5q4UUuYU" resolve="text" />
                </node>
              </node>
            </node>
          </node>
          <node concept="3clFbF" id="2NOvNR_vttE" role="3cqZAp">
            <node concept="37vLTI" id="2NOvNR_vu99" role="3clFbG">
              <node concept="2OqwBi" id="2NOvNR_vtzA" role="37vLTJ">
                <node concept="EsrRn" id="2NOvNR_vttC" role="2Oq$k0" />
                <node concept="3TrcHB" id="2NOvNR_vtM9" role="2OqNvi">
                  <ref role="3TsBF5" to="4s7a:5a5L3hY8OSL" resolve="isEdit" />
                </node>
              </node>
              <node concept="3y3z36" id="2NOvNR_vuPZ" role="37vLTx">
                <node concept="2OqwBi" id="2NOvNR_vuQ0" role="3uHU7w">
                  <node concept="EsrRn" id="2NOvNR_vuQ1" role="2Oq$k0" />
                  <node concept="3TrcHB" id="2NOvNR_vuQ2" role="2OqNvi">
                    <ref role="3TsBF5" to="4s7a:2NOvNR_v8nc" resolve="oldText" />
                  </node>
                </node>
                <node concept="2OqwBi" id="2NOvNR_vuQ3" role="3uHU7B">
                  <node concept="EsrRn" id="2NOvNR_vuQ4" role="2Oq$k0" />
                  <node concept="3TrcHB" id="2NOvNR_vuQ5" role="2OqNvi">
                    <ref role="3TsBF5" to="4s7a:2s5q4UUuYU" resolve="text" />
                  </node>
                </node>
              </node>
            </node>
          </node>
          <node concept="3clFbH" id="6NCueePM6PK" role="3cqZAp" />
          <node concept="3clFbJ" id="6NCueePM6V7" role="3cqZAp">
            <node concept="3clFbS" id="6NCueePM6V9" role="3clFbx">
              <node concept="3cpWs8" id="6NCueePM9FG" role="3cqZAp">
                <node concept="3cpWsn" id="6NCueePM9FJ" role="3cpWs9">
                  <property role="TrG5h" value="futureTextContent" />
                  <node concept="3Tqbb2" id="6NCueePM9FE" role="1tU5fm">
                    <ref role="ehGHo" to="4s7a:2s5q4UUgwr" resolve="TextContent" />
                  </node>
                  <node concept="10QFUN" id="6NCueePMalB" role="33vP2m">
                    <node concept="2OqwBi" id="6NCueePM9Q$" role="10QFUP">
                      <node concept="EsrRn" id="6NCueePM9IQ" role="2Oq$k0" />
                      <node concept="3TrEf2" id="6NCueePMa4R" role="2OqNvi">
                        <ref role="3Tt5mk" to="4s7a:6NCueePLN3i" resolve="futureNode" />
                      </node>
                    </node>
                    <node concept="3Tqbb2" id="6NCueePMalC" role="10QFUM">
                      <ref role="ehGHo" to="4s7a:2s5q4UUgwr" resolve="TextContent" />
                    </node>
                  </node>
                </node>
              </node>
              <node concept="3clFbF" id="6NCueePMaqb" role="3cqZAp">
                <node concept="37vLTI" id="6NCueePMbqD" role="3clFbG">
                  <node concept="1Wqviy" id="6NCueePMbxb" role="37vLTx" />
                  <node concept="2OqwBi" id="6NCueePMa$r" role="37vLTJ">
                    <node concept="37vLTw" id="6NCueePMaq9" role="2Oq$k0">
                      <ref role="3cqZAo" node="6NCueePM9FJ" resolve="futureTextContent" />
                    </node>
                    <node concept="3TrcHB" id="6NCueePMaFV" role="2OqNvi">
                      <ref role="3TsBF5" to="4s7a:2s5q4UUuYU" resolve="text" />
                    </node>
                  </node>
                </node>
              </node>
            </node>
            <node concept="3y3z36" id="6NCueePM7_q" role="3clFbw">
              <node concept="10Nm6u" id="6NCueePM7BU" role="3uHU7w" />
              <node concept="2OqwBi" id="6NCueePM7ch" role="3uHU7B">
                <node concept="EsrRn" id="6NCueePM72Q" role="2Oq$k0" />
                <node concept="3TrEf2" id="6NCueePM7jN" role="2OqNvi">
                  <ref role="3Tt5mk" to="4s7a:6NCueePLN3i" resolve="futureNode" />
                </node>
              </node>
            </node>
          </node>
          <node concept="3clFbH" id="6NCueePM6QX" role="3cqZAp" />
        </node>
      </node>
    </node>
  </node>
  <node concept="1M2fIO" id="3LUIgcmDbYd">
    <ref role="1M2myG" to="4s7a:3VMRtc4W287" resolve="CPP" />
    <node concept="nKS2y" id="3LUIgcmDbYe" role="1MLUbF">
      <node concept="3clFbS" id="3LUIgcmDbYf" role="2VODD2">
        <node concept="3clFbF" id="3LUIgcmEvaz" role="3cqZAp">
          <node concept="3clFbC" id="3LUIgcmEvZx" role="3clFbG">
            <node concept="10Nm6u" id="3LUIgcmEwcx" role="3uHU7w" />
            <node concept="2OqwBi" id="3LUIgcmEvnw" role="3uHU7B">
              <node concept="EsrRn" id="3LUIgcmEvay" role="2Oq$k0" />
              <node concept="3TrEf2" id="3LUIgcmEv_X" role="2OqNvi">
                <ref role="3Tt5mk" to="4s7a:3LUIgcmtu8f" resolve="future" />
              </node>
            </node>
          </node>
        </node>
      </node>
    </node>
  </node>
  <node concept="1M2fIO" id="43XlAbjseRu">
    <ref role="1M2myG" to="4s7a:43XlAbjeR$w" resolve="ExclusiveSwitcher" />
  </node>
</model>

