<?xml version="1.0" encoding="UTF-8"?>
<model ref="r:df4312d3-5157-47ac-a3c2-c015d8e2a606(CPPLanguage.typesystem)">
  <persistence version="9" />
  <languages>
    <use id="7a5dda62-9140-4668-ab76-d5ed1746f2b2" name="jetbrains.mps.lang.typesystem" version="0" />
  </languages>
  <imports />
  <registry />
</model>

