2017-02-27 19:01:16,313 [9277174]   INFO - CPPImporter.plugin.importCPP_Action - [LOG] Import File C:/ITU/MyRepositories/mps-re-engineering/tool/cpponmps/Evaluation/Stefan/Marlin_STM32/results/mps/take2/planner_cleaned_Marlin_STM32_integrated.cpp 
2017-02-27 19:01:26,042 [9286903]   WARN - CPPImporter.plugin.importCPP_Action - done adding new nodes 
2017-02-27 19:01:26,282 [9287143]   INFO - jetbrains.mps.extapi.model.EditableSModelBase - Saving model Examples.Imported2 
2017-02-27 19:01:26,454 [9287315]   INFO - jetbrains.mps.smodel.MPSModuleRepository - Saving of the repository took 0,173 s 
2017-02-27 19:01:35,415 [9296276]   INFO - CPPImporter.plugin.ArrangeViews_Action - [LOG] Arrange Views 
2017-02-27 19:01:46,644 [9307505]   WARN - CPPImporter.plugin.UpdatePreview_Action - Execute Intentions 
2017-02-27 19:01:46,645 [9307506]   INFO - CPPImporter.plugin.UpdatePreview - Initialize future model 
2017-02-27 19:01:46,646 [9307507]   INFO - CPPImporter.plugin.UpdatePreview - Create node mapping 
2017-02-27 19:01:46,646 [9307507]   INFO - CPPImporter.plugin.UpdatePreview - Node mapping done 
2017-02-27 19:01:48,961 [9309822]   INFO - CPPImporter.plugin.NextChunk_Action - [LOG] Next Chunk 
2017-02-27 19:02:00,898 [9321759]   INFO - CPPImporter.plugin.Keep_Action - [LOG] Intention Keep for 2 nodes. 
2017-02-27 19:02:00,898 [9321759]   INFO - CPPImporter.plugin.Keep_Action - [LOG] View of Keep Intention is Clone 
2017-02-27 19:02:00,898 [9321759]   INFO - CPPImporter.plugin.Keep_Action - Propose anti Intention for true branch 
2017-02-27 19:02:01,958 [9322819]   INFO - CPPImporter.plugin.Keep_Action - [LOG] Add anti intention 
2017-02-27 19:02:01,959 [9322820]   INFO - CPPImporter.plugin.Keep_Action - Update Preview 
2017-02-27 19:02:01,959 [9322820]   INFO - CPPImporter.plugin.UpdatePreview - Initialize future model 
2017-02-27 19:02:01,960 [9322821]   INFO - CPPImporter.plugin.UpdatePreview - Create node mapping 
2017-02-27 19:02:01,961 [9322822]   INFO - CPPImporter.plugin.UpdatePreview - Node mapping done 
2017-02-27 19:02:01,962 [9322823]   WARN - CPPImporter.plugin.UpdatePreview - Execute intention Keep 
2017-02-27 19:02:01,962 [9322823]   WARN - CPPImporter.plugin.IntentionExecutor - indexOf node 0 
2017-02-27 19:02:01,962 [9322823]   WARN - CPPImporter.plugin.UpdatePreview - Execute intention Remove 
2017-02-27 19:02:01,962 [9322823]   WARN - CPPImporter.plugin.UpdatePreview - Execute intention Keep 
2017-02-27 19:02:01,962 [9322823]   WARN - CPPImporter.plugin.IntentionExecutor - indexOf node 0 
2017-02-27 19:02:01,963 [9322824]   WARN - CPPImporter.plugin.UpdatePreview - Execute intention Remove 
2017-02-27 19:02:01,973 [9322834]   WARN - CPPLanguage.editor.IntentionContainer_Editor - Show 4 intentions. 
2017-02-27 19:02:12,505 [9333366]   INFO - CPPImporter.plugin.NextChunk_Action - [LOG] Next Chunk 
2017-02-27 19:02:21,777 [9342638]   INFO - CPPImporter.plugin.Remove_Action - [LOG] Remove Intention for 1 nodes. 
2017-02-27 19:02:21,777 [9342638]   INFO - CPPImporter.plugin.Remove_Action - [LOG] View of Keep Intention is Clone 
2017-02-27 19:02:21,777 [9342638]   INFO - CPPImporter.plugin.UpdatePreview - Initialize future model 
2017-02-27 19:02:21,779 [9342640]   INFO - CPPImporter.plugin.UpdatePreview - Create node mapping 
2017-02-27 19:02:21,780 [9342641]   INFO - CPPImporter.plugin.UpdatePreview - Node mapping done 
2017-02-27 19:02:21,781 [9342642]   WARN - CPPImporter.plugin.UpdatePreview - Execute intention Keep 
2017-02-27 19:02:21,781 [9342642]   WARN - CPPImporter.plugin.IntentionExecutor - indexOf node 0 
2017-02-27 19:02:21,781 [9342642]   WARN - CPPImporter.plugin.UpdatePreview - Execute intention Remove 
2017-02-27 19:02:21,781 [9342642]   WARN - CPPImporter.plugin.UpdatePreview - Execute intention Keep 
2017-02-27 19:02:21,781 [9342642]   WARN - CPPImporter.plugin.IntentionExecutor - indexOf node 0 
2017-02-27 19:02:21,781 [9342642]   WARN - CPPImporter.plugin.UpdatePreview - Execute intention Remove 
2017-02-27 19:02:21,782 [9342643]   WARN - CPPImporter.plugin.UpdatePreview - Execute intention Remove 
2017-02-27 19:02:21,791 [9342652]   WARN - CPPLanguage.editor.IntentionContainer_Editor - Show 5 intentions. 
2017-02-27 19:02:26,621 [9347482]   INFO - CPPImporter.plugin.Remove_Action - [LOG] Remove Intention for 3 nodes. 
2017-02-27 19:02:26,621 [9347482]   INFO - CPPImporter.plugin.Remove_Action - [LOG] View of Keep Intention is Clone 
2017-02-27 19:02:26,621 [9347482]   INFO - CPPImporter.plugin.Remove_Action - Propose anti Intention for true branch 
2017-02-27 19:02:32,627 [9353488]   INFO - CPPImporter.plugin.UpdatePreview - Initialize future model 
2017-02-27 19:02:32,629 [9353490]   INFO - CPPImporter.plugin.UpdatePreview - Create node mapping 
2017-02-27 19:02:32,630 [9353491]   INFO - CPPImporter.plugin.UpdatePreview - Node mapping done 
2017-02-27 19:02:32,631 [9353492]   WARN - CPPImporter.plugin.UpdatePreview - Execute intention Keep 
2017-02-27 19:02:32,631 [9353492]   WARN - CPPImporter.plugin.IntentionExecutor - indexOf node 0 
2017-02-27 19:02:32,631 [9353492]   WARN - CPPImporter.plugin.UpdatePreview - Execute intention Remove 
2017-02-27 19:02:32,631 [9353492]   WARN - CPPImporter.plugin.UpdatePreview - Execute intention Keep 
2017-02-27 19:02:32,631 [9353492]   WARN - CPPImporter.plugin.IntentionExecutor - indexOf node 0 
2017-02-27 19:02:32,632 [9353493]   WARN - CPPImporter.plugin.UpdatePreview - Execute intention Remove 
2017-02-27 19:02:32,632 [9353493]   WARN - CPPImporter.plugin.UpdatePreview - Execute intention Remove 
2017-02-27 19:02:32,632 [9353493]   WARN - CPPImporter.plugin.UpdatePreview - Execute intention Remove 
2017-02-27 19:02:32,633 [9353494]   WARN - CPPImporter.plugin.UpdatePreview - Execute intention Keep 
2017-02-27 19:02:32,633 [9353494]   WARN - CPPImporter.plugin.IntentionExecutor - indexOf node 0 
2017-02-27 19:02:32,633 [9353494]   WARN - CPPImporter.plugin.UpdatePreview - Execute intention Remove 
2017-02-27 19:02:32,633 [9353494]   WARN - CPPImporter.plugin.UpdatePreview - Execute intention Remove 
2017-02-27 19:02:32,663 [9353524]   WARN - CPPLanguage.editor.IntentionContainer_Editor - Show 9 intentions. 
2017-02-27 19:02:38,764 [9359625]   INFO - CPPImporter.plugin.Remove_Action - [LOG] Remove Intention for 1 nodes. 
2017-02-27 19:02:38,764 [9359625]   INFO - CPPImporter.plugin.Remove_Action - [LOG] View of Keep Intention is Clone 
2017-02-27 19:02:38,765 [9359626]   INFO - CPPImporter.plugin.UpdatePreview - Initialize future model 
2017-02-27 19:02:38,766 [9359627]   INFO - CPPImporter.plugin.UpdatePreview - Create node mapping 
2017-02-27 19:02:38,767 [9359628]   INFO - CPPImporter.plugin.UpdatePreview - Node mapping done 
2017-02-27 19:02:38,768 [9359629]   WARN - CPPImporter.plugin.UpdatePreview - Execute intention Keep 
2017-02-27 19:02:38,768 [9359629]   WARN - CPPImporter.plugin.IntentionExecutor - indexOf node 0 
2017-02-27 19:02:38,768 [9359629]   WARN - CPPImporter.plugin.UpdatePreview - Execute intention Remove 
2017-02-27 19:02:38,768 [9359629]   WARN - CPPImporter.plugin.UpdatePreview - Execute intention Keep 
2017-02-27 19:02:38,768 [9359629]   WARN - CPPImporter.plugin.IntentionExecutor - indexOf node 0 
2017-02-27 19:02:38,769 [9359630]   WARN - CPPImporter.plugin.UpdatePreview - Execute intention Remove 
2017-02-27 19:02:38,769 [9359630]   WARN - CPPImporter.plugin.UpdatePreview - Execute intention Remove 
2017-02-27 19:02:38,769 [9359630]   WARN - CPPImporter.plugin.UpdatePreview - Execute intention Remove 
2017-02-27 19:02:38,770 [9359631]   WARN - CPPImporter.plugin.UpdatePreview - Execute intention Keep 
2017-02-27 19:02:38,770 [9359631]   WARN - CPPImporter.plugin.IntentionExecutor - indexOf node 0 
2017-02-27 19:02:38,770 [9359631]   WARN - CPPImporter.plugin.UpdatePreview - Execute intention Remove 
2017-02-27 19:02:38,770 [9359631]   WARN - CPPImporter.plugin.UpdatePreview - Execute intention Remove 
2017-02-27 19:02:38,770 [9359631]   WARN - CPPImporter.plugin.UpdatePreview - Execute intention Remove 
2017-02-27 19:02:38,780 [9359641]   WARN - CPPLanguage.editor.IntentionContainer_Editor - Show 10 intentions. 
2017-02-27 19:02:43,334 [9364195]   INFO - CPPImporter.plugin.Remove_Action - [LOG] Remove Intention for 1 nodes. 
2017-02-27 19:02:43,334 [9364195]   INFO - CPPImporter.plugin.Remove_Action - [LOG] View of Keep Intention is Clone 
2017-02-27 19:02:43,334 [9364195]   INFO - CPPImporter.plugin.UpdatePreview - Initialize future model 
2017-02-27 19:02:43,336 [9364197]   INFO - CPPImporter.plugin.UpdatePreview - Create node mapping 
2017-02-27 19:02:43,337 [9364198]   INFO - CPPImporter.plugin.UpdatePreview - Node mapping done 
2017-02-27 19:02:43,338 [9364199]   WARN - CPPImporter.plugin.UpdatePreview - Execute intention Keep 
2017-02-27 19:02:43,338 [9364199]   WARN - CPPImporter.plugin.IntentionExecutor - indexOf node 0 
2017-02-27 19:02:43,338 [9364199]   WARN - CPPImporter.plugin.UpdatePreview - Execute intention Remove 
2017-02-27 19:02:43,338 [9364199]   WARN - CPPImporter.plugin.UpdatePreview - Execute intention Keep 
2017-02-27 19:02:43,338 [9364199]   WARN - CPPImporter.plugin.IntentionExecutor - indexOf node 0 
2017-02-27 19:02:43,338 [9364199]   WARN - CPPImporter.plugin.UpdatePreview - Execute intention Remove 
2017-02-27 19:02:43,339 [9364200]   WARN - CPPImporter.plugin.UpdatePreview - Execute intention Remove 
2017-02-27 19:02:43,339 [9364200]   WARN - CPPImporter.plugin.UpdatePreview - Execute intention Remove 
2017-02-27 19:02:43,339 [9364200]   WARN - CPPImporter.plugin.UpdatePreview - Execute intention Keep 
2017-02-27 19:02:43,340 [9364201]   WARN - CPPImporter.plugin.IntentionExecutor - indexOf node 0 
2017-02-27 19:02:43,340 [9364201]   WARN - CPPImporter.plugin.UpdatePreview - Execute intention Remove 
2017-02-27 19:02:43,340 [9364201]   WARN - CPPImporter.plugin.UpdatePreview - Execute intention Remove 
2017-02-27 19:02:43,340 [9364201]   WARN - CPPImporter.plugin.UpdatePreview - Execute intention Remove 
2017-02-27 19:02:43,341 [9364202]   WARN - CPPImporter.plugin.UpdatePreview - Execute intention Remove 
2017-02-27 19:02:43,350 [9364211]   WARN - CPPLanguage.editor.IntentionContainer_Editor - Show 11 intentions. 
2017-02-27 19:02:49,057 [9369918]   INFO - CPPImporter.plugin.Remove_Action - [LOG] Remove Intention for 3 nodes. 
2017-02-27 19:02:49,057 [9369918]   INFO - CPPImporter.plugin.Remove_Action - [LOG] View of Keep Intention is Clone 
2017-02-27 19:02:49,057 [9369918]   INFO - CPPImporter.plugin.UpdatePreview - Initialize future model 
2017-02-27 19:02:49,059 [9369920]   INFO - CPPImporter.plugin.UpdatePreview - Create node mapping 
2017-02-27 19:02:49,060 [9369921]   INFO - CPPImporter.plugin.UpdatePreview - Node mapping done 
2017-02-27 19:02:49,061 [9369922]   WARN - CPPImporter.plugin.UpdatePreview - Execute intention Keep 
2017-02-27 19:02:49,061 [9369922]   WARN - CPPImporter.plugin.IntentionExecutor - indexOf node 0 
2017-02-27 19:02:49,061 [9369922]   WARN - CPPImporter.plugin.UpdatePreview - Execute intention Remove 
2017-02-27 19:02:49,062 [9369923]   WARN - CPPImporter.plugin.UpdatePreview - Execute intention Keep 
2017-02-27 19:02:49,062 [9369923]   WARN - CPPImporter.plugin.IntentionExecutor - indexOf node 0 
2017-02-27 19:02:49,062 [9369923]   WARN - CPPImporter.plugin.UpdatePreview - Execute intention Remove 
2017-02-27 19:02:49,062 [9369923]   WARN - CPPImporter.plugin.UpdatePreview - Execute intention Remove 
2017-02-27 19:02:49,063 [9369924]   WARN - CPPImporter.plugin.UpdatePreview - Execute intention Remove 
2017-02-27 19:02:49,063 [9369924]   WARN - CPPImporter.plugin.UpdatePreview - Execute intention Keep 
2017-02-27 19:02:49,063 [9369924]   WARN - CPPImporter.plugin.IntentionExecutor - indexOf node 0 
2017-02-27 19:02:49,063 [9369924]   WARN - CPPImporter.plugin.UpdatePreview - Execute intention Remove 
2017-02-27 19:02:49,064 [9369925]   WARN - CPPImporter.plugin.UpdatePreview - Execute intention Remove 
2017-02-27 19:02:49,064 [9369925]   WARN - CPPImporter.plugin.UpdatePreview - Execute intention Remove 
2017-02-27 19:02:49,064 [9369925]   WARN - CPPImporter.plugin.UpdatePreview - Execute intention Remove 
2017-02-27 19:02:49,065 [9369926]   WARN - CPPImporter.plugin.UpdatePreview - Execute intention Remove 
2017-02-27 19:02:49,065 [9369926]   WARN - CPPImporter.plugin.UpdatePreview - Execute intention Remove 
2017-02-27 19:02:49,066 [9369927]   WARN - CPPImporter.plugin.UpdatePreview - Execute intention Remove 
2017-02-27 19:02:49,077 [9369938]   WARN - CPPLanguage.editor.IntentionContainer_Editor - Show 14 intentions. 
2017-02-27 19:02:57,317 [9378178]   WARN - CPPImporter.plugin.GenericKeepMainlineOnly_Action - GenericKeep: Intention already declared 
2017-02-27 19:02:57,317 [9378178]   WARN - CPPImporter.plugin.GenericKeepMainlineOnly_Action - GenericKeep: Intention already declared 
2017-02-27 19:02:57,317 [9378178]   WARN - CPPImporter.plugin.GenericKeepMainlineOnly_Action - GenericKeep: Intention already declared 
2017-02-27 19:02:57,317 [9378178]   WARN - CPPImporter.plugin.GenericKeepMainlineOnly_Action - GenericKeep: Intention already declared 
2017-02-27 19:02:57,318 [9378179]   WARN - CPPImporter.plugin.GenericKeepMainlineOnly_Action - GenericKeep: Intention already declared 
2017-02-27 19:02:57,318 [9378179]   WARN - CPPImporter.plugin.GenericKeepMainlineOnly_Action - GenericKeep: Intention already declared 
2017-02-27 19:02:57,318 [9378179]   WARN - CPPImporter.plugin.GenericKeepMainlineOnly_Action - GenericKeep: Intention already declared 
2017-02-27 19:02:57,318 [9378179]   WARN - CPPImporter.plugin.GenericKeepMainlineOnly_Action - GenericKeep: Intention already declared 
2017-02-27 19:02:57,318 [9378179]   WARN - CPPImporter.plugin.GenericKeepMainlineOnly_Action - GenericKeep: Intention already declared 
2017-02-27 19:02:57,318 [9378179]   WARN - CPPImporter.plugin.GenericKeepMainlineOnly_Action - GenericKeep: Intention already declared 
2017-02-27 19:02:57,318 [9378179]   WARN - CPPImporter.plugin.GenericKeepMainlineOnly_Action - GenericKeep: Intention already declared 
2017-02-27 19:02:57,318 [9378179]   WARN - CPPImporter.plugin.GenericKeepMainlineOnly_Action - GenericKeep: Intention already declared 
2017-02-27 19:02:57,318 [9378179]   WARN - CPPImporter.plugin.GenericKeepMainlineOnly_Action - GenericKeep: Intention already declared 
2017-02-27 19:02:57,318 [9378179]   WARN - CPPImporter.plugin.GenericKeepMainlineOnly_Action - GenericKeep: Intention already declared 
2017-02-27 19:02:57,327 [9378188]   WARN - CPPLanguage.editor.IntentionContainer_Editor - Show 29 intentions. 
2017-02-27 19:02:59,105 [9379966]   INFO - jetbrains.mps.extapi.model.EditableSModelBase - Saving model Examples.Imported2 
2017-02-27 19:02:59,390 [9380251]   INFO - jetbrains.mps.smodel.MPSModuleRepository - Saving of the repository took 0,287 s 
2017-02-27 19:03:48,605 [9429466]   WARN - CPPLanguage.editor.IntentionContainer_Editor - Show 29 intentions. 
2017-02-27 19:04:53,079 [9493940]   INFO - CPPImporter.plugin.Keep_Action - [LOG] Intention Keep for 1 nodes. 
2017-02-27 19:04:53,080 [9493941]   INFO - CPPImporter.plugin.Keep_Action - [LOG] View of Keep Intention is default 
2017-02-27 19:04:53,080 [9493941]   INFO - CPPImporter.plugin.Keep_Action - Propose anti Intention for true branch 
2017-02-27 19:04:54,100 [9494961]   INFO - CPPImporter.plugin.Keep_Action - [LOG] Add anti intention 
2017-02-27 19:04:54,101 [9494962]   INFO - CPPImporter.plugin.Keep_Action - Update Preview 
2017-02-27 19:04:54,101 [9494962]   INFO - CPPImporter.plugin.UpdatePreview - Initialize future model 
2017-02-27 19:04:54,102 [9494963]   INFO - CPPImporter.plugin.UpdatePreview - Create node mapping 
2017-02-27 19:04:54,103 [9494964]   INFO - CPPImporter.plugin.UpdatePreview - Node mapping done 
2017-02-27 19:04:54,104 [9494965]   WARN - CPPImporter.plugin.UpdatePreview - Execute intention Keep 
2017-02-27 19:04:54,104 [9494965]   WARN - CPPImporter.plugin.IntentionExecutor - indexOf node 0 
2017-02-27 19:04:54,104 [9494965]   WARN - CPPImporter.plugin.UpdatePreview - Execute intention Remove 
2017-02-27 19:04:54,105 [9494966]   WARN - CPPImporter.plugin.UpdatePreview - Execute intention Keep 
2017-02-27 19:04:54,105 [9494966]   WARN - CPPImporter.plugin.IntentionExecutor - indexOf node 0 
2017-02-27 19:04:54,105 [9494966]   WARN - CPPImporter.plugin.UpdatePreview - Execute intention Remove 
2017-02-27 19:04:54,105 [9494966]   WARN - CPPImporter.plugin.UpdatePreview - Execute intention Remove 
2017-02-27 19:04:54,106 [9494967]   WARN - CPPImporter.plugin.UpdatePreview - Execute intention Remove 
2017-02-27 19:04:54,106 [9494967]   WARN - CPPImporter.plugin.UpdatePreview - Execute intention Keep 
2017-02-27 19:04:54,106 [9494967]   WARN - CPPImporter.plugin.IntentionExecutor - indexOf node 0 
2017-02-27 19:04:54,106 [9494967]   WARN - CPPImporter.plugin.UpdatePreview - Execute intention Remove 
2017-02-27 19:04:54,106 [9494967]   WARN - CPPImporter.plugin.UpdatePreview - Execute intention Remove 
2017-02-27 19:04:54,107 [9494968]   WARN - CPPImporter.plugin.UpdatePreview - Execute intention Remove 
2017-02-27 19:04:54,108 [9494969]   WARN - CPPImporter.plugin.UpdatePreview - Execute intention Remove 
2017-02-27 19:04:54,108 [9494969]   WARN - CPPImporter.plugin.UpdatePreview - Execute intention Remove 
2017-02-27 19:04:54,108 [9494969]   WARN - CPPImporter.plugin.UpdatePreview - Execute intention Remove 
2017-02-27 19:04:54,109 [9494970]   WARN - CPPImporter.plugin.UpdatePreview - Execute intention Remove 
2017-02-27 19:04:54,109 [9494970]   WARN - CPPImporter.plugin.UpdatePreview - Execute intention GenericRemove 
2017-02-27 19:04:54,110 [9494971]   WARN - CPPImporter.plugin.UpdatePreview - Execute intention GenericRemove 
2017-02-27 19:04:54,110 [9494971]   WARN - CPPImporter.plugin.UpdatePreview - Execute intention GenericRemove 
2017-02-27 19:04:54,110 [9494971]   WARN - CPPImporter.plugin.UpdatePreview - Execute intention GenericRemove 
2017-02-27 19:04:54,111 [9494972]   WARN - CPPImporter.plugin.UpdatePreview - Execute intention GenericRemove 
2017-02-27 19:04:54,111 [9494972]   WARN - CPPImporter.plugin.UpdatePreview - Execute intention GenericRemove 
2017-02-27 19:04:54,111 [9494972]   WARN - CPPImporter.plugin.UpdatePreview - Execute intention GenericRemove 
2017-02-27 19:04:54,112 [9494973]   WARN - CPPImporter.plugin.UpdatePreview - Execute intention GenericKeep 
2017-02-27 19:04:54,112 [9494973]   WARN - CPPImporter.plugin.IntentionExecutor - indexOf node 0 
2017-02-27 19:04:54,112 [9494973]   WARN - CPPImporter.plugin.UpdatePreview - Execute intention GenericKeep 
2017-02-27 19:04:54,112 [9494973]   WARN - CPPImporter.plugin.IntentionExecutor - indexOf node 0 
2017-02-27 19:04:54,112 [9494973]   WARN - CPPImporter.plugin.UpdatePreview - Execute intention GenericRemove 
2017-02-27 19:04:54,113 [9494974]   WARN - CPPImporter.plugin.UpdatePreview - Execute intention GenericKeep 
2017-02-27 19:04:54,113 [9494974]   WARN - CPPImporter.plugin.IntentionExecutor - indexOf node 0 
2017-02-27 19:04:54,113 [9494974]   WARN - CPPImporter.plugin.UpdatePreview - Execute intention GenericRemove 
2017-02-27 19:04:54,113 [9494974]   WARN - CPPImporter.plugin.UpdatePreview - Execute intention GenericKeep 
2017-02-27 19:04:54,113 [9494974]   WARN - CPPImporter.plugin.IntentionExecutor - indexOf node 0 
2017-02-27 19:04:54,114 [9494975]   WARN - CPPImporter.plugin.UpdatePreview - Execute intention GenericRemove 
2017-02-27 19:04:54,114 [9494975]   WARN - CPPImporter.plugin.UpdatePreview - Execute intention Keep 
2017-02-27 19:04:54,114 [9494975]   WARN - CPPImporter.plugin.IntentionExecutor - indexOf node 0 
2017-02-27 19:04:54,114 [9494975]   WARN - CPPImporter.plugin.UpdatePreview - Execute intention Remove 
2017-02-27 19:04:54,119 [9494980]   WARN - CPPLanguage.editor.IntentionContainer_Editor - Show 30 intentions. 
2017-02-27 19:05:04,766 [9505627]   INFO - CPPImporter.plugin.Keep_Action - [LOG] Intention Keep for 1 nodes. 
2017-02-27 19:05:04,767 [9505628]   INFO - CPPImporter.plugin.Keep_Action - [LOG] View of Keep Intention is default 
2017-02-27 19:05:04,767 [9505628]   INFO - CPPImporter.plugin.Keep_Action - Propose anti Intention for true branch 
2017-02-27 19:05:05,819 [9506680]   INFO - CPPImporter.plugin.Keep_Action - [LOG] Add anti intention 
2017-02-27 19:05:05,819 [9506680]   INFO - CPPImporter.plugin.Keep_Action - Update Preview 
2017-02-27 19:05:05,819 [9506680]   INFO - CPPImporter.plugin.UpdatePreview - Initialize future model 
2017-02-27 19:05:05,821 [9506682]   INFO - CPPImporter.plugin.UpdatePreview - Create node mapping 
2017-02-27 19:05:05,822 [9506683]   INFO - CPPImporter.plugin.UpdatePreview - Node mapping done 
2017-02-27 19:05:05,823 [9506684]   WARN - CPPImporter.plugin.UpdatePreview - Execute intention Keep 
2017-02-27 19:05:05,823 [9506684]   WARN - CPPImporter.plugin.IntentionExecutor - indexOf node 0 
2017-02-27 19:05:05,823 [9506684]   WARN - CPPImporter.plugin.UpdatePreview - Execute intention Remove 
2017-02-27 19:05:05,824 [9506685]   WARN - CPPImporter.plugin.UpdatePreview - Execute intention Keep 
2017-02-27 19:05:05,824 [9506685]   WARN - CPPImporter.plugin.IntentionExecutor - indexOf node 0 
2017-02-27 19:05:05,824 [9506685]   WARN - CPPImporter.plugin.UpdatePreview - Execute intention Remove 
2017-02-27 19:05:05,824 [9506685]   WARN - CPPImporter.plugin.UpdatePreview - Execute intention Remove 
2017-02-27 19:05:05,825 [9506686]   WARN - CPPImporter.plugin.UpdatePreview - Execute intention Remove 
2017-02-27 19:05:05,825 [9506686]   WARN - CPPImporter.plugin.UpdatePreview - Execute intention Keep 
2017-02-27 19:05:05,825 [9506686]   WARN - CPPImporter.plugin.IntentionExecutor - indexOf node 0 
2017-02-27 19:05:05,826 [9506687]   WARN - CPPImporter.plugin.UpdatePreview - Execute intention Remove 
2017-02-27 19:05:05,826 [9506687]   WARN - CPPImporter.plugin.UpdatePreview - Execute intention Remove 
2017-02-27 19:05:05,826 [9506687]   WARN - CPPImporter.plugin.UpdatePreview - Execute intention Remove 
2017-02-27 19:05:05,827 [9506688]   WARN - CPPImporter.plugin.UpdatePreview - Execute intention Remove 
2017-02-27 19:05:05,827 [9506688]   WARN - CPPImporter.plugin.UpdatePreview - Execute intention Remove 
2017-02-27 19:05:05,827 [9506688]   WARN - CPPImporter.plugin.UpdatePreview - Execute intention Remove 
2017-02-27 19:05:05,828 [9506689]   WARN - CPPImporter.plugin.UpdatePreview - Execute intention Remove 
2017-02-27 19:05:05,828 [9506689]   WARN - CPPImporter.plugin.UpdatePreview - Execute intention GenericRemove 
2017-02-27 19:05:05,829 [9506690]   WARN - CPPImporter.plugin.UpdatePreview - Execute intention GenericRemove 
2017-02-27 19:05:05,829 [9506690]   WARN - CPPImporter.plugin.UpdatePreview - Execute intention GenericRemove 
2017-02-27 19:05:05,829 [9506690]   WARN - CPPImporter.plugin.UpdatePreview - Execute intention GenericRemove 
2017-02-27 19:05:05,830 [9506691]   WARN - CPPImporter.plugin.UpdatePreview - Execute intention GenericRemove 
2017-02-27 19:05:05,830 [9506691]   WARN - CPPImporter.plugin.UpdatePreview - Execute intention GenericRemove 
2017-02-27 19:05:05,831 [9506692]   WARN - CPPImporter.plugin.UpdatePreview - Execute intention GenericRemove 
2017-02-27 19:05:05,831 [9506692]   WARN - CPPImporter.plugin.UpdatePreview - Execute intention GenericKeep 
2017-02-27 19:05:05,831 [9506692]   WARN - CPPImporter.plugin.IntentionExecutor - indexOf node 0 
2017-02-27 19:05:05,831 [9506692]   WARN - CPPImporter.plugin.UpdatePreview - Execute intention GenericKeep 
2017-02-27 19:05:05,831 [9506692]   WARN - CPPImporter.plugin.IntentionExecutor - indexOf node 0 
2017-02-27 19:05:05,831 [9506692]   WARN - CPPImporter.plugin.UpdatePreview - Execute intention GenericKeep 
2017-02-27 19:05:05,832 [9506693]   WARN - CPPImporter.plugin.IntentionExecutor - indexOf node 0 
2017-02-27 19:05:05,832 [9506693]   WARN - CPPImporter.plugin.UpdatePreview - Execute intention GenericRemove 
2017-02-27 19:05:05,832 [9506693]   WARN - CPPImporter.plugin.UpdatePreview - Execute intention GenericKeep 
2017-02-27 19:05:05,832 [9506693]   WARN - CPPImporter.plugin.IntentionExecutor - indexOf node 0 
2017-02-27 19:05:05,833 [9506694]   WARN - CPPImporter.plugin.UpdatePreview - Execute intention GenericRemove 
2017-02-27 19:05:05,833 [9506694]   WARN - CPPImporter.plugin.UpdatePreview - Execute intention Keep 
2017-02-27 19:05:05,833 [9506694]   WARN - CPPImporter.plugin.IntentionExecutor - indexOf node 0 
2017-02-27 19:05:05,833 [9506694]   WARN - CPPImporter.plugin.UpdatePreview - Execute intention Remove 
2017-02-27 19:05:05,834 [9506695]   WARN - CPPImporter.plugin.UpdatePreview - Execute intention Keep 
2017-02-27 19:05:05,834 [9506695]   WARN - CPPImporter.plugin.IntentionExecutor - indexOf node 0 
2017-02-27 19:05:05,834 [9506695]   WARN - CPPImporter.plugin.UpdatePreview - Execute intention Remove 
2017-02-27 19:05:05,839 [9506700]   WARN - CPPLanguage.editor.IntentionContainer_Editor - Show 31 intentions. 
2017-02-27 19:05:15,334 [9516195]   INFO - CPPImporter.plugin.Keep_Action - [LOG] Intention Keep for 1 nodes. 
2017-02-27 19:05:15,334 [9516195]   INFO - CPPImporter.plugin.Keep_Action - [LOG] View of Keep Intention is default 
2017-02-27 19:05:15,334 [9516195]   INFO - CPPImporter.plugin.Keep_Action - Propose anti Intention for true branch 
2017-02-27 19:05:16,537 [9517398]   INFO - CPPImporter.plugin.Keep_Action - [LOG] Add anti intention 
2017-02-27 19:05:16,537 [9517398]   INFO - CPPImporter.plugin.Keep_Action - Update Preview 
2017-02-27 19:05:16,537 [9517398]   INFO - CPPImporter.plugin.UpdatePreview - Initialize future model 
2017-02-27 19:05:16,539 [9517400]   INFO - CPPImporter.plugin.UpdatePreview - Create node mapping 
2017-02-27 19:05:16,540 [9517401]   INFO - CPPImporter.plugin.UpdatePreview - Node mapping done 
2017-02-27 19:05:16,541 [9517402]   WARN - CPPImporter.plugin.UpdatePreview - Execute intention Keep 
2017-02-27 19:05:16,541 [9517402]   WARN - CPPImporter.plugin.IntentionExecutor - indexOf node 0 
2017-02-27 19:05:16,541 [9517402]   WARN - CPPImporter.plugin.UpdatePreview - Execute intention Remove 
2017-02-27 19:05:16,542 [9517403]   WARN - CPPImporter.plugin.UpdatePreview - Execute intention Keep 
2017-02-27 19:05:16,542 [9517403]   WARN - CPPImporter.plugin.IntentionExecutor - indexOf node 0 
2017-02-27 19:05:16,542 [9517403]   WARN - CPPImporter.plugin.UpdatePreview - Execute intention Remove 
2017-02-27 19:05:16,542 [9517403]   WARN - CPPImporter.plugin.UpdatePreview - Execute intention Remove 
2017-02-27 19:05:16,543 [9517404]   WARN - CPPImporter.plugin.UpdatePreview - Execute intention Remove 
2017-02-27 19:05:16,543 [9517404]   WARN - CPPImporter.plugin.UpdatePreview - Execute intention Keep 
2017-02-27 19:05:16,543 [9517404]   WARN - CPPImporter.plugin.IntentionExecutor - indexOf node 0 
2017-02-27 19:05:16,543 [9517404]   WARN - CPPImporter.plugin.UpdatePreview - Execute intention Remove 
2017-02-27 19:05:16,544 [9517405]   WARN - CPPImporter.plugin.UpdatePreview - Execute intention Remove 
2017-02-27 19:05:16,544 [9517405]   WARN - CPPImporter.plugin.UpdatePreview - Execute intention Remove 
2017-02-27 19:05:16,544 [9517405]   WARN - CPPImporter.plugin.UpdatePreview - Execute intention Remove 
2017-02-27 19:05:16,545 [9517406]   WARN - CPPImporter.plugin.UpdatePreview - Execute intention Remove 
2017-02-27 19:05:16,545 [9517406]   WARN - CPPImporter.plugin.UpdatePreview - Execute intention Remove 
2017-02-27 19:05:16,546 [9517407]   WARN - CPPImporter.plugin.UpdatePreview - Execute intention Remove 
2017-02-27 19:05:16,546 [9517407]   WARN - CPPImporter.plugin.UpdatePreview - Execute intention GenericRemove 
2017-02-27 19:05:16,547 [9517408]   WARN - CPPImporter.plugin.UpdatePreview - Execute intention GenericRemove 
2017-02-27 19:05:16,547 [9517408]   WARN - CPPImporter.plugin.UpdatePreview - Execute intention GenericRemove 
2017-02-27 19:05:16,547 [9517408]   WARN - CPPImporter.plugin.UpdatePreview - Execute intention GenericRemove 
2017-02-27 19:05:16,548 [9517409]   WARN - CPPImporter.plugin.UpdatePreview - Execute intention GenericRemove 
2017-02-27 19:05:16,548 [9517409]   WARN - CPPImporter.plugin.UpdatePreview - Execute intention GenericRemove 
2017-02-27 19:05:16,548 [9517409]   WARN - CPPImporter.plugin.UpdatePreview - Execute intention GenericRemove 
2017-02-27 19:05:16,549 [9517410]   WARN - CPPImporter.plugin.UpdatePreview - Execute intention GenericKeep 
2017-02-27 19:05:16,549 [9517410]   WARN - CPPImporter.plugin.IntentionExecutor - indexOf node 0 
2017-02-27 19:05:16,549 [9517410]   WARN - CPPImporter.plugin.UpdatePreview - Execute intention GenericKeep 
2017-02-27 19:05:16,549 [9517410]   WARN - CPPImporter.plugin.IntentionExecutor - indexOf node 0 
2017-02-27 19:05:16,549 [9517410]   WARN - CPPImporter.plugin.UpdatePreview - Execute intention GenericKeep 
2017-02-27 19:05:16,549 [9517410]   WARN - CPPImporter.plugin.IntentionExecutor - indexOf node 0 
2017-02-27 19:05:16,550 [9517411]   WARN - CPPImporter.plugin.UpdatePreview - Execute intention GenericKeep 
2017-02-27 19:05:16,550 [9517411]   WARN - CPPImporter.plugin.IntentionExecutor - indexOf node 0 
2017-02-27 19:05:16,550 [9517411]   WARN - CPPImporter.plugin.UpdatePreview - Execute intention GenericRemove 
2017-02-27 19:05:16,550 [9517411]   WARN - CPPImporter.plugin.UpdatePreview - Execute intention Keep 
2017-02-27 19:05:16,550 [9517411]   WARN - CPPImporter.plugin.IntentionExecutor - indexOf node 0 
2017-02-27 19:05:16,550 [9517411]   WARN - CPPImporter.plugin.UpdatePreview - Execute intention Remove 
2017-02-27 19:05:16,551 [9517412]   WARN - CPPImporter.plugin.UpdatePreview - Execute intention Keep 
2017-02-27 19:05:16,551 [9517412]   WARN - CPPImporter.plugin.IntentionExecutor - indexOf node 0 
2017-02-27 19:05:16,551 [9517412]   WARN - CPPImporter.plugin.UpdatePreview - Execute intention Remove 
2017-02-27 19:05:16,551 [9517412]   WARN - CPPImporter.plugin.UpdatePreview - Execute intention Keep 
2017-02-27 19:05:16,551 [9517412]   WARN - CPPImporter.plugin.IntentionExecutor - indexOf node 0 
2017-02-27 19:05:16,552 [9517413]   WARN - CPPImporter.plugin.UpdatePreview - Execute intention Remove 
2017-02-27 19:05:16,556 [9517417]   WARN - CPPLanguage.editor.IntentionContainer_Editor - Show 32 intentions. 
2017-02-27 19:05:23,271 [9524132]   INFO - CPPImporter.plugin.Keep_Action - [LOG] Intention Keep for 1 nodes. 
2017-02-27 19:05:23,271 [9524132]   INFO - CPPImporter.plugin.Keep_Action - [LOG] View of Keep Intention is default 
2017-02-27 19:05:23,271 [9524132]   INFO - CPPImporter.plugin.Keep_Action - Propose anti Intention for true branch 
2017-02-27 19:05:24,384 [9525245]   INFO - CPPImporter.plugin.Keep_Action - [LOG] Add anti intention 
2017-02-27 19:05:24,384 [9525245]   INFO - CPPImporter.plugin.Keep_Action - Update Preview 
2017-02-27 19:05:24,384 [9525245]   INFO - CPPImporter.plugin.UpdatePreview - Initialize future model 
2017-02-27 19:05:24,386 [9525247]   INFO - CPPImporter.plugin.UpdatePreview - Create node mapping 
2017-02-27 19:05:24,387 [9525248]   INFO - CPPImporter.plugin.UpdatePreview - Node mapping done 
2017-02-27 19:05:24,388 [9525249]   WARN - CPPImporter.plugin.UpdatePreview - Execute intention Keep 
2017-02-27 19:05:24,388 [9525249]   WARN - CPPImporter.plugin.IntentionExecutor - indexOf node 0 
2017-02-27 19:05:24,388 [9525249]   WARN - CPPImporter.plugin.UpdatePreview - Execute intention Remove 
2017-02-27 19:05:24,388 [9525249]   WARN - CPPImporter.plugin.UpdatePreview - Execute intention Keep 
2017-02-27 19:05:24,389 [9525250]   WARN - CPPImporter.plugin.IntentionExecutor - indexOf node 0 
2017-02-27 19:05:24,389 [9525250]   WARN - CPPImporter.plugin.UpdatePreview - Execute intention Remove 
2017-02-27 19:05:24,389 [9525250]   WARN - CPPImporter.plugin.UpdatePreview - Execute intention Remove 
2017-02-27 19:05:24,389 [9525250]   WARN - CPPImporter.plugin.UpdatePreview - Execute intention Remove 
2017-02-27 19:05:24,390 [9525251]   WARN - CPPImporter.plugin.UpdatePreview - Execute intention Keep 
2017-02-27 19:05:24,390 [9525251]   WARN - CPPImporter.plugin.IntentionExecutor - indexOf node 0 
2017-02-27 19:05:24,390 [9525251]   WARN - CPPImporter.plugin.UpdatePreview - Execute intention Remove 
2017-02-27 19:05:24,390 [9525251]   WARN - CPPImporter.plugin.UpdatePreview - Execute intention Remove 
2017-02-27 19:05:24,391 [9525252]   WARN - CPPImporter.plugin.UpdatePreview - Execute intention Remove 
2017-02-27 19:05:24,391 [9525252]   WARN - CPPImporter.plugin.UpdatePreview - Execute intention Remove 
2017-02-27 19:05:24,391 [9525252]   WARN - CPPImporter.plugin.UpdatePreview - Execute intention Remove 
2017-02-27 19:05:24,392 [9525253]   WARN - CPPImporter.plugin.UpdatePreview - Execute intention Remove 
2017-02-27 19:05:24,392 [9525253]   WARN - CPPImporter.plugin.UpdatePreview - Execute intention Remove 
2017-02-27 19:05:24,393 [9525254]   WARN - CPPImporter.plugin.UpdatePreview - Execute intention GenericRemove 
2017-02-27 19:05:24,393 [9525254]   WARN - CPPImporter.plugin.UpdatePreview - Execute intention GenericRemove 
2017-02-27 19:05:24,394 [9525255]   WARN - CPPImporter.plugin.UpdatePreview - Execute intention GenericRemove 
2017-02-27 19:05:24,394 [9525255]   WARN - CPPImporter.plugin.UpdatePreview - Execute intention GenericRemove 
2017-02-27 19:05:24,394 [9525255]   WARN - CPPImporter.plugin.UpdatePreview - Execute intention GenericRemove 
2017-02-27 19:05:24,395 [9525256]   WARN - CPPImporter.plugin.UpdatePreview - Execute intention GenericRemove 
2017-02-27 19:05:24,395 [9525256]   WARN - CPPImporter.plugin.UpdatePreview - Execute intention GenericRemove 
2017-02-27 19:05:24,395 [9525256]   WARN - CPPImporter.plugin.UpdatePreview - Execute intention GenericKeep 
2017-02-27 19:05:24,395 [9525256]   WARN - CPPImporter.plugin.IntentionExecutor - indexOf node 0 
2017-02-27 19:05:24,396 [9525257]   WARN - CPPImporter.plugin.UpdatePreview - Execute intention GenericKeep 
2017-02-27 19:05:24,396 [9525257]   WARN - CPPImporter.plugin.IntentionExecutor - indexOf node 0 
2017-02-27 19:05:24,396 [9525257]   WARN - CPPImporter.plugin.UpdatePreview - Execute intention GenericKeep 
2017-02-27 19:05:24,396 [9525257]   WARN - CPPImporter.plugin.IntentionExecutor - indexOf node 0 
2017-02-27 19:05:24,396 [9525257]   WARN - CPPImporter.plugin.UpdatePreview - Execute intention GenericKeep 
2017-02-27 19:05:24,396 [9525257]   WARN - CPPImporter.plugin.IntentionExecutor - indexOf node 0 
2017-02-27 19:05:24,396 [9525257]   WARN - CPPImporter.plugin.UpdatePreview - Execute intention Keep 
2017-02-27 19:05:24,396 [9525257]   WARN - CPPImporter.plugin.IntentionExecutor - indexOf node 0 
2017-02-27 19:05:24,396 [9525257]   WARN - CPPImporter.plugin.UpdatePreview - Execute intention Remove 
2017-02-27 19:05:24,397 [9525258]   WARN - CPPImporter.plugin.UpdatePreview - Execute intention Keep 
2017-02-27 19:05:24,397 [9525258]   WARN - CPPImporter.plugin.IntentionExecutor - indexOf node 0 
2017-02-27 19:05:24,397 [9525258]   WARN - CPPImporter.plugin.UpdatePreview - Execute intention Remove 
2017-02-27 19:05:24,397 [9525258]   WARN - CPPImporter.plugin.UpdatePreview - Execute intention Keep 
2017-02-27 19:05:24,398 [9525259]   WARN - CPPImporter.plugin.IntentionExecutor - indexOf node 0 
2017-02-27 19:05:24,398 [9525259]   WARN - CPPImporter.plugin.UpdatePreview - Execute intention Remove 
2017-02-27 19:05:24,398 [9525259]   WARN - CPPImporter.plugin.UpdatePreview - Execute intention Keep 
2017-02-27 19:05:24,398 [9525259]   WARN - CPPImporter.plugin.IntentionExecutor - indexOf node 0 
2017-02-27 19:05:24,398 [9525259]   WARN - CPPImporter.plugin.UpdatePreview - Execute intention Remove 
2017-02-27 19:05:24,403 [9525264]   WARN - CPPLanguage.editor.IntentionContainer_Editor - Show 33 intentions. 
2017-02-27 19:05:37,689 [9538550]   WARN - CPPImporter.plugin.UpdatePreview_Action - Execute Intentions 
2017-02-27 19:05:37,689 [9538550]   INFO - CPPImporter.plugin.UpdatePreview - Initialize future model 
2017-02-27 19:05:37,691 [9538552]   INFO - CPPImporter.plugin.UpdatePreview - Create node mapping 
2017-02-27 19:05:37,692 [9538553]   INFO - CPPImporter.plugin.UpdatePreview - Node mapping done 
2017-02-27 19:05:37,693 [9538554]   WARN - CPPImporter.plugin.UpdatePreview - Execute intention Keep 
2017-02-27 19:05:37,694 [9538555]   WARN - CPPImporter.plugin.IntentionExecutor - indexOf node 0 
2017-02-27 19:05:37,694 [9538555]   WARN - CPPImporter.plugin.UpdatePreview - Execute intention Remove 
2017-02-27 19:05:37,694 [9538555]   WARN - CPPImporter.plugin.UpdatePreview - Execute intention Keep 
2017-02-27 19:05:37,694 [9538555]   WARN - CPPImporter.plugin.IntentionExecutor - indexOf node 0 
2017-02-27 19:05:37,694 [9538555]   WARN - CPPImporter.plugin.UpdatePreview - Execute intention Remove 
2017-02-27 19:05:37,695 [9538556]   WARN - CPPImporter.plugin.UpdatePreview - Execute intention Remove 
2017-02-27 19:05:37,695 [9538556]   WARN - CPPImporter.plugin.UpdatePreview - Execute intention Remove 
2017-02-27 19:05:37,695 [9538556]   WARN - CPPImporter.plugin.UpdatePreview - Execute intention Keep 
2017-02-27 19:05:37,695 [9538556]   WARN - CPPImporter.plugin.IntentionExecutor - indexOf node 0 
2017-02-27 19:05:37,695 [9538556]   WARN - CPPImporter.plugin.UpdatePreview - Execute intention Remove 
2017-02-27 19:05:37,696 [9538557]   WARN - CPPImporter.plugin.UpdatePreview - Execute intention Remove 
2017-02-27 19:05:37,696 [9538557]   WARN - CPPImporter.plugin.UpdatePreview - Execute intention Remove 
2017-02-27 19:05:37,697 [9538558]   WARN - CPPImporter.plugin.UpdatePreview - Execute intention Remove 
2017-02-27 19:05:37,697 [9538558]   WARN - CPPImporter.plugin.UpdatePreview - Execute intention Remove 
2017-02-27 19:05:37,697 [9538558]   WARN - CPPImporter.plugin.UpdatePreview - Execute intention Remove 
2017-02-27 19:05:37,698 [9538559]   WARN - CPPImporter.plugin.UpdatePreview - Execute intention Remove 
2017-02-27 19:05:37,698 [9538559]   WARN - CPPImporter.plugin.UpdatePreview - Execute intention GenericRemove 
2017-02-27 19:05:37,699 [9538560]   WARN - CPPImporter.plugin.UpdatePreview - Execute intention GenericRemove 
2017-02-27 19:05:37,699 [9538560]   WARN - CPPImporter.plugin.UpdatePreview - Execute intention GenericRemove 
2017-02-27 19:05:37,700 [9538561]   WARN - CPPImporter.plugin.UpdatePreview - Execute intention GenericRemove 
2017-02-27 19:05:37,700 [9538561]   WARN - CPPImporter.plugin.UpdatePreview - Execute intention GenericRemove 
2017-02-27 19:05:37,700 [9538561]   WARN - CPPImporter.plugin.UpdatePreview - Execute intention GenericRemove 
2017-02-27 19:05:37,701 [9538562]   WARN - CPPImporter.plugin.UpdatePreview - Execute intention GenericRemove 
2017-02-27 19:05:37,701 [9538562]   WARN - CPPImporter.plugin.UpdatePreview - Execute intention GenericKeep 
2017-02-27 19:05:37,701 [9538562]   WARN - CPPImporter.plugin.IntentionExecutor - indexOf node 0 
2017-02-27 19:05:37,701 [9538562]   WARN - CPPImporter.plugin.UpdatePreview - Execute intention GenericKeep 
2017-02-27 19:05:37,701 [9538562]   WARN - CPPImporter.plugin.IntentionExecutor - indexOf node 0 
2017-02-27 19:05:37,701 [9538562]   WARN - CPPImporter.plugin.UpdatePreview - Execute intention GenericKeep 
2017-02-27 19:05:37,701 [9538562]   WARN - CPPImporter.plugin.IntentionExecutor - indexOf node 0 
2017-02-27 19:05:37,702 [9538563]   WARN - CPPImporter.plugin.UpdatePreview - Execute intention GenericKeep 
2017-02-27 19:05:37,702 [9538563]   WARN - CPPImporter.plugin.IntentionExecutor - indexOf node 0 
2017-02-27 19:05:37,702 [9538563]   WARN - CPPImporter.plugin.UpdatePreview - Execute intention Keep 
2017-02-27 19:05:37,702 [9538563]   WARN - CPPImporter.plugin.IntentionExecutor - indexOf node 0 
2017-02-27 19:05:37,702 [9538563]   WARN - CPPImporter.plugin.UpdatePreview - Execute intention Remove 
2017-02-27 19:05:37,703 [9538564]   WARN - CPPImporter.plugin.UpdatePreview - Execute intention Keep 
2017-02-27 19:05:37,703 [9538564]   WARN - CPPImporter.plugin.IntentionExecutor - indexOf node 0 
2017-02-27 19:05:37,703 [9538564]   WARN - CPPImporter.plugin.UpdatePreview - Execute intention Remove 
2017-02-27 19:05:37,703 [9538564]   WARN - CPPImporter.plugin.UpdatePreview - Execute intention Keep 
2017-02-27 19:05:37,703 [9538564]   WARN - CPPImporter.plugin.IntentionExecutor - indexOf node 0 
2017-02-27 19:05:37,704 [9538565]   WARN - CPPImporter.plugin.UpdatePreview - Execute intention Remove 
2017-02-27 19:05:37,704 [9538565]   WARN - CPPImporter.plugin.UpdatePreview - Execute intention Keep 
2017-02-27 19:05:37,704 [9538565]   WARN - CPPImporter.plugin.IntentionExecutor - indexOf node 0 
2017-02-27 19:05:37,704 [9538565]   WARN - CPPImporter.plugin.UpdatePreview - Execute intention Remove 
2017-02-27 19:05:37,708 [9538569]   WARN - CPPLanguage.editor.IntentionContainer_Editor - Show 33 intentions. 
2017-02-27 19:05:46,182 [9547043]   WARN - CPPImporter.plugin.CommitIntentions_Action - Commit Intentions 
2017-02-27 19:05:46,182 [9547043]   INFO - CPPImporter.plugin.UpdatePreview - Initialize future model 
2017-02-27 19:05:46,185 [9547046]   INFO - CPPImporter.plugin.UpdatePreview - Create node mapping 
2017-02-27 19:05:46,186 [9547047]   INFO - CPPImporter.plugin.UpdatePreview - Node mapping done 
2017-02-27 19:05:46,187 [9547048]   WARN - CPPImporter.plugin.UpdatePreview - Execute intention Keep 
2017-02-27 19:05:46,187 [9547048]   WARN - CPPImporter.plugin.IntentionExecutor - indexOf node 0 
2017-02-27 19:05:46,187 [9547048]   WARN - CPPImporter.plugin.UpdatePreview - Execute intention Remove 
2017-02-27 19:05:46,188 [9547049]   WARN - CPPImporter.plugin.UpdatePreview - Execute intention Keep 
2017-02-27 19:05:46,188 [9547049]   WARN - CPPImporter.plugin.IntentionExecutor - indexOf node 0 
2017-02-27 19:05:46,188 [9547049]   WARN - CPPImporter.plugin.UpdatePreview - Execute intention Remove 
2017-02-27 19:05:46,189 [9547050]   WARN - CPPImporter.plugin.UpdatePreview - Execute intention Remove 
2017-02-27 19:05:46,189 [9547050]   WARN - CPPImporter.plugin.UpdatePreview - Execute intention Remove 
2017-02-27 19:05:46,189 [9547050]   WARN - CPPImporter.plugin.UpdatePreview - Execute intention Keep 
2017-02-27 19:05:46,189 [9547050]   WARN - CPPImporter.plugin.IntentionExecutor - indexOf node 0 
2017-02-27 19:05:46,189 [9547050]   WARN - CPPImporter.plugin.UpdatePreview - Execute intention Remove 
2017-02-27 19:05:46,190 [9547051]   WARN - CPPImporter.plugin.UpdatePreview - Execute intention Remove 
2017-02-27 19:05:46,190 [9547051]   WARN - CPPImporter.plugin.UpdatePreview - Execute intention Remove 
2017-02-27 19:05:46,191 [9547052]   WARN - CPPImporter.plugin.UpdatePreview - Execute intention Remove 
2017-02-27 19:05:46,191 [9547052]   WARN - CPPImporter.plugin.UpdatePreview - Execute intention Remove 
2017-02-27 19:05:46,191 [9547052]   WARN - CPPImporter.plugin.UpdatePreview - Execute intention Remove 
2017-02-27 19:05:46,192 [9547053]   WARN - CPPImporter.plugin.UpdatePreview - Execute intention Remove 
2017-02-27 19:05:46,192 [9547053]   WARN - CPPImporter.plugin.UpdatePreview - Execute intention GenericRemove 
2017-02-27 19:05:46,193 [9547054]   WARN - CPPImporter.plugin.UpdatePreview - Execute intention GenericRemove 
2017-02-27 19:05:46,193 [9547054]   WARN - CPPImporter.plugin.UpdatePreview - Execute intention GenericRemove 
2017-02-27 19:05:46,193 [9547054]   WARN - CPPImporter.plugin.UpdatePreview - Execute intention GenericRemove 
2017-02-27 19:05:46,194 [9547055]   WARN - CPPImporter.plugin.UpdatePreview - Execute intention GenericRemove 
2017-02-27 19:05:46,194 [9547055]   WARN - CPPImporter.plugin.UpdatePreview - Execute intention GenericRemove 
2017-02-27 19:05:46,194 [9547055]   WARN - CPPImporter.plugin.UpdatePreview - Execute intention GenericRemove 
2017-02-27 19:05:46,195 [9547056]   WARN - CPPImporter.plugin.UpdatePreview - Execute intention GenericKeep 
2017-02-27 19:05:46,195 [9547056]   WARN - CPPImporter.plugin.IntentionExecutor - indexOf node 0 
2017-02-27 19:05:46,195 [9547056]   WARN - CPPImporter.plugin.UpdatePreview - Execute intention GenericKeep 
2017-02-27 19:05:46,195 [9547056]   WARN - CPPImporter.plugin.IntentionExecutor - indexOf node 0 
2017-02-27 19:05:46,195 [9547056]   WARN - CPPImporter.plugin.UpdatePreview - Execute intention GenericKeep 
2017-02-27 19:05:46,195 [9547056]   WARN - CPPImporter.plugin.IntentionExecutor - indexOf node 0 
2017-02-27 19:05:46,196 [9547057]   WARN - CPPImporter.plugin.UpdatePreview - Execute intention GenericKeep 
2017-02-27 19:05:46,196 [9547057]   WARN - CPPImporter.plugin.IntentionExecutor - indexOf node 0 
2017-02-27 19:05:46,196 [9547057]   WARN - CPPImporter.plugin.UpdatePreview - Execute intention Keep 
2017-02-27 19:05:46,196 [9547057]   WARN - CPPImporter.plugin.IntentionExecutor - indexOf node 0 
2017-02-27 19:05:46,196 [9547057]   WARN - CPPImporter.plugin.UpdatePreview - Execute intention Remove 
2017-02-27 19:05:46,196 [9547057]   WARN - CPPImporter.plugin.UpdatePreview - Execute intention Keep 
2017-02-27 19:05:46,197 [9547058]   WARN - CPPImporter.plugin.IntentionExecutor - indexOf node 0 
2017-02-27 19:05:46,197 [9547058]   WARN - CPPImporter.plugin.UpdatePreview - Execute intention Remove 
2017-02-27 19:05:46,197 [9547058]   WARN - CPPImporter.plugin.UpdatePreview - Execute intention Keep 
2017-02-27 19:05:46,197 [9547058]   WARN - CPPImporter.plugin.IntentionExecutor - indexOf node 0 
2017-02-27 19:05:46,197 [9547058]   WARN - CPPImporter.plugin.UpdatePreview - Execute intention Remove 
2017-02-27 19:05:46,198 [9547059]   WARN - CPPImporter.plugin.UpdatePreview - Execute intention Keep 
2017-02-27 19:05:46,198 [9547059]   WARN - CPPImporter.plugin.IntentionExecutor - indexOf node 0 
2017-02-27 19:05:46,198 [9547059]   WARN - CPPImporter.plugin.UpdatePreview - Execute intention Remove 
2017-02-27 19:05:46,294 [9547155]   WARN - CPPLanguage.editor.IntentionContainer_Editor - Show 0 intentions. 
2017-02-27 19:06:01,922 [9562783]   INFO - CPPImporter.plugin.Export_Action - [LOG] Export to C:\ITU\MyRepositories\mps-re-engineering\tool\cpponmps\Evaluation\Stefan\Marlin_STM32\results\mps\take2\planner_merged_mps.cpp 
2017-02-27 19:06:05,040 [9565901]   INFO - jetbrains.mps.extapi.model.EditableSModelBase - Saving model Examples.Imported2 
2017-02-27 19:06:05,259 [9566120]   INFO - jetbrains.mps.smodel.MPSModuleRepository - Saving of the repository took 0,220 s 