2017-02-26 09:33:27,201 [48995310]   INFO - CPPImporter.plugin.importCPP_Action - [LOG] Import File C:/ITU/MyRepositories/mps-re-engineering/marlin-evaluation/examples/tasks-for-mps/planner_cleaned_Marlin_STM32_integrated.cpp 
2017-02-26 09:33:36,692 [49004801]   WARN - CPPImporter.plugin.importCPP_Action - done adding new nodes 
2017-02-26 09:34:24,757 [49052866]   INFO - CPPImporter.plugin.Keep_Action - [LOG] Intention Keep for 2 nodes. 
2017-02-26 09:34:24,757 [49052866]   INFO - CPPImporter.plugin.Keep_Action - [LOG] View of Keep Intention is default 
2017-02-26 09:34:24,757 [49052866]   INFO - CPPImporter.plugin.Keep_Action - Propose anti Intention for true branch 
2017-02-26 09:34:25,738 [49053847]   INFO - CPPImporter.plugin.Keep_Action - [LOG] Add anti intention 
2017-02-26 09:34:25,738 [49053847]   INFO - CPPImporter.plugin.Keep_Action - Update Preview 
2017-02-26 09:34:25,738 [49053847]   INFO - CPPImporter.plugin.UpdatePreview - Initialize future model 
2017-02-26 09:34:25,739 [49053848]   INFO - CPPImporter.plugin.UpdatePreview - Create node mapping 
2017-02-26 09:34:25,740 [49053849]   INFO - CPPImporter.plugin.UpdatePreview - Node mapping done 
2017-02-26 09:34:25,740 [49053849]   WARN - CPPImporter.plugin.UpdatePreview - Execute intention Keep 
2017-02-26 09:34:25,740 [49053849]   WARN - CPPImporter.plugin.IntentionExecutor - indexOf node 0 
2017-02-26 09:34:25,740 [49053849]   WARN - CPPImporter.plugin.UpdatePreview - Execute intention Remove 
2017-02-26 09:34:25,741 [49053850]   WARN - CPPImporter.plugin.UpdatePreview - Execute intention Keep 
2017-02-26 09:34:25,741 [49053850]   WARN - CPPImporter.plugin.IntentionExecutor - indexOf node 0 
2017-02-26 09:34:25,741 [49053850]   WARN - CPPImporter.plugin.UpdatePreview - Execute intention Remove 
2017-02-26 09:34:25,765 [49053874]   WARN - CPPLanguage.editor.IntentionContainer_Editor - Show 4 intentions. 
2017-02-26 09:34:42,485 [49070594]   INFO - CPPImporter.plugin.Remove_Action - [LOG] Remove Intention for 1 nodes. 
2017-02-26 09:34:42,485 [49070594]   INFO - CPPImporter.plugin.Remove_Action - [LOG] View of Keep Intention is default 
2017-02-26 09:34:42,486 [49070595]   INFO - CPPImporter.plugin.UpdatePreview - Initialize future model 
2017-02-26 09:34:42,487 [49070596]   INFO - CPPImporter.plugin.UpdatePreview - Create node mapping 
2017-02-26 09:34:42,488 [49070597]   INFO - CPPImporter.plugin.UpdatePreview - Node mapping done 
2017-02-26 09:34:42,488 [49070597]   WARN - CPPImporter.plugin.UpdatePreview - Execute intention Keep 
2017-02-26 09:34:42,489 [49070598]   WARN - CPPImporter.plugin.IntentionExecutor - indexOf node 0 
2017-02-26 09:34:42,489 [49070598]   WARN - CPPImporter.plugin.UpdatePreview - Execute intention Remove 
2017-02-26 09:34:42,489 [49070598]   WARN - CPPImporter.plugin.UpdatePreview - Execute intention Keep 
2017-02-26 09:34:42,489 [49070598]   WARN - CPPImporter.plugin.IntentionExecutor - indexOf node 0 
2017-02-26 09:34:42,489 [49070598]   WARN - CPPImporter.plugin.UpdatePreview - Execute intention Remove 
2017-02-26 09:34:42,490 [49070599]   WARN - CPPImporter.plugin.UpdatePreview - Execute intention Remove 
2017-02-26 09:34:42,515 [49070624]   WARN - CPPLanguage.editor.IntentionContainer_Editor - Show 5 intentions. 
2017-02-26 09:34:47,894 [49076003]   INFO - CPPImporter.plugin.Remove_Action - [LOG] Remove Intention for 3 nodes. 
2017-02-26 09:34:47,894 [49076003]   INFO - CPPImporter.plugin.Remove_Action - [LOG] View of Keep Intention is default 
2017-02-26 09:34:47,895 [49076004]   INFO - CPPImporter.plugin.Remove_Action - Propose anti Intention for true branch 
2017-02-26 09:34:48,856 [49076965]   INFO - CPPImporter.plugin.UpdatePreview - Initialize future model 
2017-02-26 09:34:48,857 [49076966]   INFO - CPPImporter.plugin.UpdatePreview - Create node mapping 
2017-02-26 09:34:48,858 [49076967]   INFO - CPPImporter.plugin.UpdatePreview - Node mapping done 
2017-02-26 09:34:48,859 [49076968]   WARN - CPPImporter.plugin.UpdatePreview - Execute intention Keep 
2017-02-26 09:34:48,859 [49076968]   WARN - CPPImporter.plugin.IntentionExecutor - indexOf node 0 
2017-02-26 09:34:48,859 [49076968]   WARN - CPPImporter.plugin.UpdatePreview - Execute intention Remove 
2017-02-26 09:34:48,859 [49076968]   WARN - CPPImporter.plugin.UpdatePreview - Execute intention Keep 
2017-02-26 09:34:48,859 [49076968]   WARN - CPPImporter.plugin.IntentionExecutor - indexOf node 0 
2017-02-26 09:34:48,859 [49076968]   WARN - CPPImporter.plugin.UpdatePreview - Execute intention Remove 
2017-02-26 09:34:48,860 [49076969]   WARN - CPPImporter.plugin.UpdatePreview - Execute intention Remove 
2017-02-26 09:34:48,860 [49076969]   WARN - CPPImporter.plugin.UpdatePreview - Execute intention Remove 
2017-02-26 09:34:48,860 [49076969]   WARN - CPPImporter.plugin.UpdatePreview - Execute intention Keep 
2017-02-26 09:34:48,861 [49076970]   WARN - CPPImporter.plugin.IntentionExecutor - indexOf node 0 
2017-02-26 09:34:48,861 [49076970]   WARN - CPPImporter.plugin.UpdatePreview - Execute intention Remove 
2017-02-26 09:34:48,861 [49076970]   WARN - CPPImporter.plugin.UpdatePreview - Execute intention Remove 
2017-02-26 09:34:48,866 [49076975]   WARN - CPPLanguage.editor.IntentionContainer_Editor - Show 9 intentions. 
2017-02-26 09:34:52,475 [49080584]   INFO - CPPImporter.plugin.Remove_Action - [LOG] Remove Intention for 1 nodes. 
2017-02-26 09:34:52,475 [49080584]   INFO - CPPImporter.plugin.Remove_Action - [LOG] View of Keep Intention is default 
2017-02-26 09:34:52,475 [49080584]   INFO - CPPImporter.plugin.UpdatePreview - Initialize future model 
2017-02-26 09:34:52,477 [49080586]   INFO - CPPImporter.plugin.UpdatePreview - Create node mapping 
2017-02-26 09:34:52,478 [49080587]   INFO - CPPImporter.plugin.UpdatePreview - Node mapping done 
2017-02-26 09:34:52,478 [49080587]   WARN - CPPImporter.plugin.UpdatePreview - Execute intention Keep 
2017-02-26 09:34:52,478 [49080587]   WARN - CPPImporter.plugin.IntentionExecutor - indexOf node 0 
2017-02-26 09:34:52,478 [49080587]   WARN - CPPImporter.plugin.UpdatePreview - Execute intention Remove 
2017-02-26 09:34:52,479 [49080588]   WARN - CPPImporter.plugin.UpdatePreview - Execute intention Keep 
2017-02-26 09:34:52,479 [49080588]   WARN - CPPImporter.plugin.IntentionExecutor - indexOf node 0 
2017-02-26 09:34:52,479 [49080588]   WARN - CPPImporter.plugin.UpdatePreview - Execute intention Remove 
2017-02-26 09:34:52,479 [49080588]   WARN - CPPImporter.plugin.UpdatePreview - Execute intention Remove 
2017-02-26 09:34:52,480 [49080589]   WARN - CPPImporter.plugin.UpdatePreview - Execute intention Remove 
2017-02-26 09:34:52,480 [49080589]   WARN - CPPImporter.plugin.UpdatePreview - Execute intention Keep 
2017-02-26 09:34:52,480 [49080589]   WARN - CPPImporter.plugin.IntentionExecutor - indexOf node 0 
2017-02-26 09:34:52,480 [49080589]   WARN - CPPImporter.plugin.UpdatePreview - Execute intention Remove 
2017-02-26 09:34:52,481 [49080590]   WARN - CPPImporter.plugin.UpdatePreview - Execute intention Remove 
2017-02-26 09:34:52,481 [49080590]   WARN - CPPImporter.plugin.UpdatePreview - Execute intention Remove 
2017-02-26 09:34:52,505 [49080614]   WARN - CPPLanguage.editor.IntentionContainer_Editor - Show 10 intentions. 
2017-02-26 09:34:55,731 [49083840]   INFO - CPPImporter.plugin.Remove_Action - [LOG] Remove Intention for 1 nodes. 
2017-02-26 09:34:55,731 [49083840]   INFO - CPPImporter.plugin.Remove_Action - [LOG] View of Keep Intention is default 
2017-02-26 09:34:55,731 [49083840]   INFO - CPPImporter.plugin.UpdatePreview - Initialize future model 
2017-02-26 09:34:55,733 [49083842]   INFO - CPPImporter.plugin.UpdatePreview - Create node mapping 
2017-02-26 09:34:55,734 [49083843]   INFO - CPPImporter.plugin.UpdatePreview - Node mapping done 
2017-02-26 09:34:55,735 [49083844]   WARN - CPPImporter.plugin.UpdatePreview - Execute intention Keep 
2017-02-26 09:34:55,735 [49083844]   WARN - CPPImporter.plugin.IntentionExecutor - indexOf node 0 
2017-02-26 09:34:55,735 [49083844]   WARN - CPPImporter.plugin.UpdatePreview - Execute intention Remove 
2017-02-26 09:34:55,735 [49083844]   WARN - CPPImporter.plugin.UpdatePreview - Execute intention Keep 
2017-02-26 09:34:55,735 [49083844]   WARN - CPPImporter.plugin.IntentionExecutor - indexOf node 0 
2017-02-26 09:34:55,735 [49083844]   WARN - CPPImporter.plugin.UpdatePreview - Execute intention Remove 
2017-02-26 09:34:55,736 [49083845]   WARN - CPPImporter.plugin.UpdatePreview - Execute intention Remove 
2017-02-26 09:34:55,736 [49083845]   WARN - CPPImporter.plugin.UpdatePreview - Execute intention Remove 
2017-02-26 09:34:55,736 [49083845]   WARN - CPPImporter.plugin.UpdatePreview - Execute intention Keep 
2017-02-26 09:34:55,736 [49083845]   WARN - CPPImporter.plugin.IntentionExecutor - indexOf node 0 
2017-02-26 09:34:55,737 [49083846]   WARN - CPPImporter.plugin.UpdatePreview - Execute intention Remove 
2017-02-26 09:34:55,737 [49083846]   WARN - CPPImporter.plugin.UpdatePreview - Execute intention Remove 
2017-02-26 09:34:55,737 [49083846]   WARN - CPPImporter.plugin.UpdatePreview - Execute intention Remove 
2017-02-26 09:34:55,738 [49083847]   WARN - CPPImporter.plugin.UpdatePreview - Execute intention Remove 
2017-02-26 09:34:55,743 [49083852]   WARN - CPPLanguage.editor.IntentionContainer_Editor - Show 11 intentions. 
2017-02-26 09:35:03,842 [49091951]   INFO - CPPImporter.plugin.Remove_Action - [LOG] Remove Intention for 3 nodes. 
2017-02-26 09:35:03,842 [49091951]   INFO - CPPImporter.plugin.Remove_Action - [LOG] View of Keep Intention is default 
2017-02-26 09:35:03,843 [49091952]   INFO - CPPImporter.plugin.UpdatePreview - Initialize future model 
2017-02-26 09:35:03,845 [49091954]   INFO - CPPImporter.plugin.UpdatePreview - Create node mapping 
2017-02-26 09:35:03,846 [49091955]   INFO - CPPImporter.plugin.UpdatePreview - Node mapping done 
2017-02-26 09:35:03,847 [49091956]   WARN - CPPImporter.plugin.UpdatePreview - Execute intention Keep 
2017-02-26 09:35:03,847 [49091956]   WARN - CPPImporter.plugin.IntentionExecutor - indexOf node 0 
2017-02-26 09:35:03,847 [49091956]   WARN - CPPImporter.plugin.UpdatePreview - Execute intention Remove 
2017-02-26 09:35:03,847 [49091956]   WARN - CPPImporter.plugin.UpdatePreview - Execute intention Keep 
2017-02-26 09:35:03,847 [49091956]   WARN - CPPImporter.plugin.IntentionExecutor - indexOf node 0 
2017-02-26 09:35:03,847 [49091956]   WARN - CPPImporter.plugin.UpdatePreview - Execute intention Remove 
2017-02-26 09:35:03,848 [49091957]   WARN - CPPImporter.plugin.UpdatePreview - Execute intention Remove 
2017-02-26 09:35:03,848 [49091957]   WARN - CPPImporter.plugin.UpdatePreview - Execute intention Remove 
2017-02-26 09:35:03,848 [49091957]   WARN - CPPImporter.plugin.UpdatePreview - Execute intention Keep 
2017-02-26 09:35:03,849 [49091958]   WARN - CPPImporter.plugin.IntentionExecutor - indexOf node 0 
2017-02-26 09:35:03,849 [49091958]   WARN - CPPImporter.plugin.UpdatePreview - Execute intention Remove 
2017-02-26 09:35:03,849 [49091958]   WARN - CPPImporter.plugin.UpdatePreview - Execute intention Remove 
2017-02-26 09:35:03,849 [49091958]   WARN - CPPImporter.plugin.UpdatePreview - Execute intention Remove 
2017-02-26 09:35:03,850 [49091959]   WARN - CPPImporter.plugin.UpdatePreview - Execute intention Remove 
2017-02-26 09:35:03,850 [49091959]   WARN - CPPImporter.plugin.UpdatePreview - Execute intention Remove 
2017-02-26 09:35:03,851 [49091960]   WARN - CPPImporter.plugin.UpdatePreview - Execute intention Remove 
2017-02-26 09:35:03,851 [49091960]   WARN - CPPImporter.plugin.UpdatePreview - Execute intention Remove 
2017-02-26 09:35:03,857 [49091966]   WARN - CPPLanguage.editor.IntentionContainer_Editor - Show 14 intentions. 
2017-02-26 09:35:08,415 [49096524]   INFO - CPPImporter.plugin.Remove_Action - [LOG] Remove Intention for 1 nodes. 
2017-02-26 09:35:08,415 [49096524]   INFO - CPPImporter.plugin.Remove_Action - [LOG] View of Keep Intention is default 
2017-02-26 09:35:08,415 [49096524]   INFO - CPPImporter.plugin.UpdatePreview - Initialize future model 
2017-02-26 09:35:08,417 [49096526]   INFO - CPPImporter.plugin.UpdatePreview - Create node mapping 
2017-02-26 09:35:08,418 [49096527]   INFO - CPPImporter.plugin.UpdatePreview - Node mapping done 
2017-02-26 09:35:08,418 [49096527]   WARN - CPPImporter.plugin.UpdatePreview - Execute intention Keep 
2017-02-26 09:35:08,419 [49096528]   WARN - CPPImporter.plugin.IntentionExecutor - indexOf node 0 
2017-02-26 09:35:08,419 [49096528]   WARN - CPPImporter.plugin.UpdatePreview - Execute intention Remove 
2017-02-26 09:35:08,419 [49096528]   WARN - CPPImporter.plugin.UpdatePreview - Execute intention Keep 
2017-02-26 09:35:08,419 [49096528]   WARN - CPPImporter.plugin.IntentionExecutor - indexOf node 0 
2017-02-26 09:35:08,419 [49096528]   WARN - CPPImporter.plugin.UpdatePreview - Execute intention Remove 
2017-02-26 09:35:08,420 [49096529]   WARN - CPPImporter.plugin.UpdatePreview - Execute intention Remove 
2017-02-26 09:35:08,420 [49096529]   WARN - CPPImporter.plugin.UpdatePreview - Execute intention Remove 
2017-02-26 09:35:08,420 [49096529]   WARN - CPPImporter.plugin.UpdatePreview - Execute intention Keep 
2017-02-26 09:35:08,420 [49096529]   WARN - CPPImporter.plugin.IntentionExecutor - indexOf node 0 
2017-02-26 09:35:08,420 [49096529]   WARN - CPPImporter.plugin.UpdatePreview - Execute intention Remove 
2017-02-26 09:35:08,421 [49096530]   WARN - CPPImporter.plugin.UpdatePreview - Execute intention Remove 
2017-02-26 09:35:08,421 [49096530]   WARN - CPPImporter.plugin.UpdatePreview - Execute intention Remove 
2017-02-26 09:35:08,421 [49096530]   WARN - CPPImporter.plugin.UpdatePreview - Execute intention Remove 
2017-02-26 09:35:08,422 [49096531]   WARN - CPPImporter.plugin.UpdatePreview - Execute intention Remove 
2017-02-26 09:35:08,422 [49096531]   WARN - CPPImporter.plugin.UpdatePreview - Execute intention Remove 
2017-02-26 09:35:08,422 [49096531]   WARN - CPPImporter.plugin.UpdatePreview - Execute intention Remove 
2017-02-26 09:35:08,423 [49096532]   WARN - CPPImporter.plugin.UpdatePreview - Execute intention Remove 
2017-02-26 09:35:08,448 [49096557]   WARN - CPPLanguage.editor.IntentionContainer_Editor - Show 15 intentions. 
2017-02-26 09:35:11,085 [49099194]   INFO - CPPImporter.plugin.Remove_Action - [LOG] Remove Intention for 1 nodes. 
2017-02-26 09:35:11,085 [49099194]   INFO - CPPImporter.plugin.Remove_Action - [LOG] View of Keep Intention is default 
2017-02-26 09:35:11,085 [49099194]   INFO - CPPImporter.plugin.UpdatePreview - Initialize future model 
2017-02-26 09:35:11,087 [49099196]   INFO - CPPImporter.plugin.UpdatePreview - Create node mapping 
2017-02-26 09:35:11,087 [49099196]   INFO - CPPImporter.plugin.UpdatePreview - Node mapping done 
2017-02-26 09:35:11,088 [49099197]   WARN - CPPImporter.plugin.UpdatePreview - Execute intention Keep 
2017-02-26 09:35:11,088 [49099197]   WARN - CPPImporter.plugin.IntentionExecutor - indexOf node 0 
2017-02-26 09:35:11,088 [49099197]   WARN - CPPImporter.plugin.UpdatePreview - Execute intention Remove 
2017-02-26 09:35:11,089 [49099198]   WARN - CPPImporter.plugin.UpdatePreview - Execute intention Keep 
2017-02-26 09:35:11,089 [49099198]   WARN - CPPImporter.plugin.IntentionExecutor - indexOf node 0 
2017-02-26 09:35:11,089 [49099198]   WARN - CPPImporter.plugin.UpdatePreview - Execute intention Remove 
2017-02-26 09:35:11,089 [49099198]   WARN - CPPImporter.plugin.UpdatePreview - Execute intention Remove 
2017-02-26 09:35:11,090 [49099199]   WARN - CPPImporter.plugin.UpdatePreview - Execute intention Remove 
2017-02-26 09:35:11,090 [49099199]   WARN - CPPImporter.plugin.UpdatePreview - Execute intention Keep 
2017-02-26 09:35:11,090 [49099199]   WARN - CPPImporter.plugin.IntentionExecutor - indexOf node 0 
2017-02-26 09:35:11,090 [49099199]   WARN - CPPImporter.plugin.UpdatePreview - Execute intention Remove 
2017-02-26 09:35:11,090 [49099199]   WARN - CPPImporter.plugin.UpdatePreview - Execute intention Remove 
2017-02-26 09:35:11,091 [49099200]   WARN - CPPImporter.plugin.UpdatePreview - Execute intention Remove 
2017-02-26 09:35:11,091 [49099200]   WARN - CPPImporter.plugin.UpdatePreview - Execute intention Remove 
2017-02-26 09:35:11,092 [49099201]   WARN - CPPImporter.plugin.UpdatePreview - Execute intention Remove 
2017-02-26 09:35:11,092 [49099201]   WARN - CPPImporter.plugin.UpdatePreview - Execute intention Remove 
2017-02-26 09:35:11,092 [49099201]   WARN - CPPImporter.plugin.UpdatePreview - Execute intention Remove 
2017-02-26 09:35:11,093 [49099202]   WARN - CPPImporter.plugin.UpdatePreview - Execute intention Remove 
2017-02-26 09:35:11,093 [49099202]   WARN - CPPImporter.plugin.UpdatePreview - Execute intention Remove 
2017-02-26 09:35:11,100 [49099209]   WARN - CPPLanguage.editor.IntentionContainer_Editor - Show 16 intentions. 
2017-02-26 09:35:14,208 [49102317]   INFO - CPPImporter.plugin.Remove_Action - [LOG] Remove Intention for 1 nodes. 
2017-02-26 09:35:14,208 [49102317]   INFO - CPPImporter.plugin.Remove_Action - [LOG] View of Keep Intention is default 
2017-02-26 09:35:14,208 [49102317]   INFO - CPPImporter.plugin.UpdatePreview - Initialize future model 
2017-02-26 09:35:14,210 [49102319]   INFO - CPPImporter.plugin.UpdatePreview - Create node mapping 
2017-02-26 09:35:14,211 [49102320]   INFO - CPPImporter.plugin.UpdatePreview - Node mapping done 
2017-02-26 09:35:14,212 [49102321]   WARN - CPPImporter.plugin.UpdatePreview - Execute intention Keep 
2017-02-26 09:35:14,212 [49102321]   WARN - CPPImporter.plugin.IntentionExecutor - indexOf node 0 
2017-02-26 09:35:14,212 [49102321]   WARN - CPPImporter.plugin.UpdatePreview - Execute intention Remove 
2017-02-26 09:35:14,212 [49102321]   WARN - CPPImporter.plugin.UpdatePreview - Execute intention Keep 
2017-02-26 09:35:14,212 [49102321]   WARN - CPPImporter.plugin.IntentionExecutor - indexOf node 0 
2017-02-26 09:35:14,212 [49102321]   WARN - CPPImporter.plugin.UpdatePreview - Execute intention Remove 
2017-02-26 09:35:14,213 [49102322]   WARN - CPPImporter.plugin.UpdatePreview - Execute intention Remove 
2017-02-26 09:35:14,213 [49102322]   WARN - CPPImporter.plugin.UpdatePreview - Execute intention Remove 
2017-02-26 09:35:14,213 [49102322]   WARN - CPPImporter.plugin.UpdatePreview - Execute intention Keep 
2017-02-26 09:35:14,213 [49102322]   WARN - CPPImporter.plugin.IntentionExecutor - indexOf node 0 
2017-02-26 09:35:14,214 [49102323]   WARN - CPPImporter.plugin.UpdatePreview - Execute intention Remove 
2017-02-26 09:35:14,214 [49102323]   WARN - CPPImporter.plugin.UpdatePreview - Execute intention Remove 
2017-02-26 09:35:14,214 [49102323]   WARN - CPPImporter.plugin.UpdatePreview - Execute intention Remove 
2017-02-26 09:35:14,215 [49102324]   WARN - CPPImporter.plugin.UpdatePreview - Execute intention Remove 
2017-02-26 09:35:14,215 [49102324]   WARN - CPPImporter.plugin.UpdatePreview - Execute intention Remove 
2017-02-26 09:35:14,215 [49102324]   WARN - CPPImporter.plugin.UpdatePreview - Execute intention Remove 
2017-02-26 09:35:14,216 [49102325]   WARN - CPPImporter.plugin.UpdatePreview - Execute intention Remove 
2017-02-26 09:35:14,216 [49102325]   WARN - CPPImporter.plugin.UpdatePreview - Execute intention Remove 
2017-02-26 09:35:14,216 [49102325]   WARN - CPPImporter.plugin.UpdatePreview - Execute intention Remove 
2017-02-26 09:35:14,217 [49102326]   WARN - CPPImporter.plugin.UpdatePreview - Execute intention Remove 
2017-02-26 09:35:14,222 [49102331]   WARN - CPPLanguage.editor.IntentionContainer_Editor - Show 17 intentions. 
2017-02-26 09:35:17,212 [49105321]   INFO - CPPImporter.plugin.Remove_Action - [LOG] Remove Intention for 1 nodes. 
2017-02-26 09:35:17,212 [49105321]   INFO - CPPImporter.plugin.Remove_Action - [LOG] View of Keep Intention is default 
2017-02-26 09:35:17,212 [49105321]   INFO - CPPImporter.plugin.UpdatePreview - Initialize future model 
2017-02-26 09:35:17,214 [49105323]   INFO - CPPImporter.plugin.UpdatePreview - Create node mapping 
2017-02-26 09:35:17,214 [49105323]   INFO - CPPImporter.plugin.UpdatePreview - Node mapping done 
2017-02-26 09:35:17,215 [49105324]   WARN - CPPImporter.plugin.UpdatePreview - Execute intention Keep 
2017-02-26 09:35:17,215 [49105324]   WARN - CPPImporter.plugin.IntentionExecutor - indexOf node 0 
2017-02-26 09:35:17,215 [49105324]   WARN - CPPImporter.plugin.UpdatePreview - Execute intention Remove 
2017-02-26 09:35:17,216 [49105325]   WARN - CPPImporter.plugin.UpdatePreview - Execute intention Keep 
2017-02-26 09:35:17,216 [49105325]   WARN - CPPImporter.plugin.IntentionExecutor - indexOf node 0 
2017-02-26 09:35:17,216 [49105325]   WARN - CPPImporter.plugin.UpdatePreview - Execute intention Remove 
2017-02-26 09:35:17,216 [49105325]   WARN - CPPImporter.plugin.UpdatePreview - Execute intention Remove 
2017-02-26 09:35:17,217 [49105326]   WARN - CPPImporter.plugin.UpdatePreview - Execute intention Remove 
2017-02-26 09:35:17,217 [49105326]   WARN - CPPImporter.plugin.UpdatePreview - Execute intention Keep 
2017-02-26 09:35:17,217 [49105326]   WARN - CPPImporter.plugin.IntentionExecutor - indexOf node 0 
2017-02-26 09:35:17,217 [49105326]   WARN - CPPImporter.plugin.UpdatePreview - Execute intention Remove 
2017-02-26 09:35:17,218 [49105327]   WARN - CPPImporter.plugin.UpdatePreview - Execute intention Remove 
2017-02-26 09:35:17,218 [49105327]   WARN - CPPImporter.plugin.UpdatePreview - Execute intention Remove 
2017-02-26 09:35:17,218 [49105327]   WARN - CPPImporter.plugin.UpdatePreview - Execute intention Remove 
2017-02-26 09:35:17,219 [49105328]   WARN - CPPImporter.plugin.UpdatePreview - Execute intention Remove 
2017-02-26 09:35:17,219 [49105328]   WARN - CPPImporter.plugin.UpdatePreview - Execute intention Remove 
2017-02-26 09:35:17,219 [49105328]   WARN - CPPImporter.plugin.UpdatePreview - Execute intention Remove 
2017-02-26 09:35:17,220 [49105329]   WARN - CPPImporter.plugin.UpdatePreview - Execute intention Remove 
2017-02-26 09:35:17,220 [49105329]   WARN - CPPImporter.plugin.UpdatePreview - Execute intention Remove 
2017-02-26 09:35:17,220 [49105329]   WARN - CPPImporter.plugin.UpdatePreview - Execute intention Remove 
2017-02-26 09:35:17,221 [49105330]   WARN - CPPImporter.plugin.UpdatePreview - Execute intention Remove 
2017-02-26 09:35:17,246 [49105355]   WARN - CPPLanguage.editor.IntentionContainer_Editor - Show 18 intentions. 
2017-02-26 09:35:21,461 [49109570]   INFO - CPPImporter.plugin.Remove_Action - [LOG] Remove Intention for 1 nodes. 
2017-02-26 09:35:21,461 [49109570]   INFO - CPPImporter.plugin.Remove_Action - [LOG] View of Keep Intention is default 
2017-02-26 09:35:21,461 [49109570]   INFO - CPPImporter.plugin.UpdatePreview - Initialize future model 
2017-02-26 09:35:21,463 [49109572]   INFO - CPPImporter.plugin.UpdatePreview - Create node mapping 
2017-02-26 09:35:21,463 [49109572]   INFO - CPPImporter.plugin.UpdatePreview - Node mapping done 
2017-02-26 09:35:21,464 [49109573]   WARN - CPPImporter.plugin.UpdatePreview - Execute intention Keep 
2017-02-26 09:35:21,464 [49109573]   WARN - CPPImporter.plugin.IntentionExecutor - indexOf node 0 
2017-02-26 09:35:21,464 [49109573]   WARN - CPPImporter.plugin.UpdatePreview - Execute intention Remove 
2017-02-26 09:35:21,465 [49109574]   WARN - CPPImporter.plugin.UpdatePreview - Execute intention Keep 
2017-02-26 09:35:21,465 [49109574]   WARN - CPPImporter.plugin.IntentionExecutor - indexOf node 0 
2017-02-26 09:35:21,465 [49109574]   WARN - CPPImporter.plugin.UpdatePreview - Execute intention Remove 
2017-02-26 09:35:21,465 [49109574]   WARN - CPPImporter.plugin.UpdatePreview - Execute intention Remove 
2017-02-26 09:35:21,466 [49109575]   WARN - CPPImporter.plugin.UpdatePreview - Execute intention Remove 
2017-02-26 09:35:21,466 [49109575]   WARN - CPPImporter.plugin.UpdatePreview - Execute intention Keep 
2017-02-26 09:35:21,466 [49109575]   WARN - CPPImporter.plugin.IntentionExecutor - indexOf node 0 
2017-02-26 09:35:21,466 [49109575]   WARN - CPPImporter.plugin.UpdatePreview - Execute intention Remove 
2017-02-26 09:35:21,466 [49109575]   WARN - CPPImporter.plugin.UpdatePreview - Execute intention Remove 
2017-02-26 09:35:21,467 [49109576]   WARN - CPPImporter.plugin.UpdatePreview - Execute intention Remove 
2017-02-26 09:35:21,467 [49109576]   WARN - CPPImporter.plugin.UpdatePreview - Execute intention Remove 
2017-02-26 09:35:21,467 [49109576]   WARN - CPPImporter.plugin.UpdatePreview - Execute intention Remove 
2017-02-26 09:35:21,468 [49109577]   WARN - CPPImporter.plugin.UpdatePreview - Execute intention Remove 
2017-02-26 09:35:21,468 [49109577]   WARN - CPPImporter.plugin.UpdatePreview - Execute intention Remove 
2017-02-26 09:35:21,469 [49109578]   WARN - CPPImporter.plugin.UpdatePreview - Execute intention Remove 
2017-02-26 09:35:21,469 [49109578]   WARN - CPPImporter.plugin.UpdatePreview - Execute intention Remove 
2017-02-26 09:35:21,469 [49109578]   WARN - CPPImporter.plugin.UpdatePreview - Execute intention Remove 
2017-02-26 09:35:21,470 [49109579]   WARN - CPPImporter.plugin.UpdatePreview - Execute intention Remove 
2017-02-26 09:35:21,470 [49109579]   WARN - CPPImporter.plugin.UpdatePreview - Execute intention Remove 
2017-02-26 09:35:21,476 [49109585]   WARN - CPPLanguage.editor.IntentionContainer_Editor - Show 19 intentions. 
2017-02-26 09:35:25,677 [49113786]   INFO - CPPImporter.plugin.Remove_Action - [LOG] Remove Intention for 1 nodes. 
2017-02-26 09:35:25,677 [49113786]   INFO - CPPImporter.plugin.Remove_Action - [LOG] View of Keep Intention is default 
2017-02-26 09:35:25,677 [49113786]   INFO - CPPImporter.plugin.UpdatePreview - Initialize future model 
2017-02-26 09:35:25,679 [49113788]   INFO - CPPImporter.plugin.UpdatePreview - Create node mapping 
2017-02-26 09:35:25,680 [49113789]   INFO - CPPImporter.plugin.UpdatePreview - Node mapping done 
2017-02-26 09:35:25,681 [49113790]   WARN - CPPImporter.plugin.UpdatePreview - Execute intention Keep 
2017-02-26 09:35:25,681 [49113790]   WARN - CPPImporter.plugin.IntentionExecutor - indexOf node 0 
2017-02-26 09:35:25,681 [49113790]   WARN - CPPImporter.plugin.UpdatePreview - Execute intention Remove 
2017-02-26 09:35:25,681 [49113790]   WARN - CPPImporter.plugin.UpdatePreview - Execute intention Keep 
2017-02-26 09:35:25,681 [49113790]   WARN - CPPImporter.plugin.IntentionExecutor - indexOf node 0 
2017-02-26 09:35:25,682 [49113791]   WARN - CPPImporter.plugin.UpdatePreview - Execute intention Remove 
2017-02-26 09:35:25,682 [49113791]   WARN - CPPImporter.plugin.UpdatePreview - Execute intention Remove 
2017-02-26 09:35:25,682 [49113791]   WARN - CPPImporter.plugin.UpdatePreview - Execute intention Remove 
2017-02-26 09:35:25,683 [49113792]   WARN - CPPImporter.plugin.UpdatePreview - Execute intention Keep 
2017-02-26 09:35:25,683 [49113792]   WARN - CPPImporter.plugin.IntentionExecutor - indexOf node 0 
2017-02-26 09:35:25,683 [49113792]   WARN - CPPImporter.plugin.UpdatePreview - Execute intention Remove 
2017-02-26 09:35:25,683 [49113792]   WARN - CPPImporter.plugin.UpdatePreview - Execute intention Remove 
2017-02-26 09:35:25,683 [49113792]   WARN - CPPImporter.plugin.UpdatePreview - Execute intention Remove 
2017-02-26 09:35:25,684 [49113793]   WARN - CPPImporter.plugin.UpdatePreview - Execute intention Remove 
2017-02-26 09:35:25,684 [49113793]   WARN - CPPImporter.plugin.UpdatePreview - Execute intention Remove 
2017-02-26 09:35:25,685 [49113794]   WARN - CPPImporter.plugin.UpdatePreview - Execute intention Remove 
2017-02-26 09:35:25,685 [49113794]   WARN - CPPImporter.plugin.UpdatePreview - Execute intention Remove 
2017-02-26 09:35:25,685 [49113794]   WARN - CPPImporter.plugin.UpdatePreview - Execute intention Remove 
2017-02-26 09:35:25,686 [49113795]   WARN - CPPImporter.plugin.UpdatePreview - Execute intention Remove 
2017-02-26 09:35:25,686 [49113795]   WARN - CPPImporter.plugin.UpdatePreview - Execute intention Remove 
2017-02-26 09:35:25,686 [49113795]   WARN - CPPImporter.plugin.UpdatePreview - Execute intention Remove 
2017-02-26 09:35:25,687 [49113796]   WARN - CPPImporter.plugin.UpdatePreview - Execute intention Remove 
2017-02-26 09:35:25,687 [49113796]   WARN - CPPImporter.plugin.UpdatePreview - Execute intention Remove 
2017-02-26 09:35:25,692 [49113801]   WARN - CPPLanguage.editor.IntentionContainer_Editor - Show 20 intentions. 
2017-02-26 09:35:29,722 [49117831]   INFO - CPPImporter.plugin.Remove_Action - [LOG] Remove Intention for 1 nodes. 
2017-02-26 09:35:29,722 [49117831]   INFO - CPPImporter.plugin.Remove_Action - [LOG] View of Keep Intention is default 
2017-02-26 09:35:29,723 [49117832]   INFO - CPPImporter.plugin.UpdatePreview - Initialize future model 
2017-02-26 09:35:29,725 [49117834]   INFO - CPPImporter.plugin.UpdatePreview - Create node mapping 
2017-02-26 09:35:29,725 [49117834]   INFO - CPPImporter.plugin.UpdatePreview - Node mapping done 
2017-02-26 09:35:29,726 [49117835]   WARN - CPPImporter.plugin.UpdatePreview - Execute intention Keep 
2017-02-26 09:35:29,726 [49117835]   WARN - CPPImporter.plugin.IntentionExecutor - indexOf node 0 
2017-02-26 09:35:29,726 [49117835]   WARN - CPPImporter.plugin.UpdatePreview - Execute intention Remove 
2017-02-26 09:35:29,726 [49117835]   WARN - CPPImporter.plugin.UpdatePreview - Execute intention Keep 
2017-02-26 09:35:29,727 [49117836]   WARN - CPPImporter.plugin.IntentionExecutor - indexOf node 0 
2017-02-26 09:35:29,727 [49117836]   WARN - CPPImporter.plugin.UpdatePreview - Execute intention Remove 
2017-02-26 09:35:29,727 [49117836]   WARN - CPPImporter.plugin.UpdatePreview - Execute intention Remove 
2017-02-26 09:35:29,727 [49117836]   WARN - CPPImporter.plugin.UpdatePreview - Execute intention Remove 
2017-02-26 09:35:29,728 [49117837]   WARN - CPPImporter.plugin.UpdatePreview - Execute intention Keep 
2017-02-26 09:35:29,728 [49117837]   WARN - CPPImporter.plugin.IntentionExecutor - indexOf node 0 
2017-02-26 09:35:29,728 [49117837]   WARN - CPPImporter.plugin.UpdatePreview - Execute intention Remove 
2017-02-26 09:35:29,728 [49117837]   WARN - CPPImporter.plugin.UpdatePreview - Execute intention Remove 
2017-02-26 09:35:29,729 [49117838]   WARN - CPPImporter.plugin.UpdatePreview - Execute intention Remove 
2017-02-26 09:35:29,729 [49117838]   WARN - CPPImporter.plugin.UpdatePreview - Execute intention Remove 
2017-02-26 09:35:29,729 [49117838]   WARN - CPPImporter.plugin.UpdatePreview - Execute intention Remove 
2017-02-26 09:35:29,730 [49117839]   WARN - CPPImporter.plugin.UpdatePreview - Execute intention Remove 
2017-02-26 09:35:29,730 [49117839]   WARN - CPPImporter.plugin.UpdatePreview - Execute intention Remove 
2017-02-26 09:35:29,731 [49117840]   WARN - CPPImporter.plugin.UpdatePreview - Execute intention Remove 
2017-02-26 09:35:29,731 [49117840]   WARN - CPPImporter.plugin.UpdatePreview - Execute intention Remove 
2017-02-26 09:35:29,731 [49117840]   WARN - CPPImporter.plugin.UpdatePreview - Execute intention Remove 
2017-02-26 09:35:29,732 [49117841]   WARN - CPPImporter.plugin.UpdatePreview - Execute intention Remove 
2017-02-26 09:35:29,732 [49117841]   WARN - CPPImporter.plugin.UpdatePreview - Execute intention Remove 
2017-02-26 09:35:29,732 [49117841]   WARN - CPPImporter.plugin.UpdatePreview - Execute intention Remove 
2017-02-26 09:35:29,733 [49117842]   WARN - CPPImporter.plugin.UpdatePreview - Execute intention Remove 
2017-02-26 09:35:29,757 [49117866]   WARN - CPPLanguage.editor.IntentionContainer_Editor - Show 21 intentions. 
2017-02-26 09:35:35,872 [49123981]   INFO - CPPImporter.plugin.Keep_Action - [LOG] Intention Keep for 1 nodes. 
2017-02-26 09:35:35,872 [49123981]   INFO - CPPImporter.plugin.Keep_Action - [LOG] View of Keep Intention is default 
2017-02-26 09:35:35,872 [49123981]   INFO - CPPImporter.plugin.Keep_Action - Propose anti Intention for true branch 
2017-02-26 09:35:36,915 [49125024]   INFO - CPPImporter.plugin.Keep_Action - [LOG] Add anti intention 
2017-02-26 09:35:36,915 [49125024]   INFO - CPPImporter.plugin.Keep_Action - Update Preview 
2017-02-26 09:35:36,915 [49125024]   INFO - CPPImporter.plugin.UpdatePreview - Initialize future model 
2017-02-26 09:35:36,917 [49125026]   INFO - CPPImporter.plugin.UpdatePreview - Create node mapping 
2017-02-26 09:35:36,918 [49125027]   INFO - CPPImporter.plugin.UpdatePreview - Node mapping done 
2017-02-26 09:35:36,919 [49125028]   WARN - CPPImporter.plugin.UpdatePreview - Execute intention Keep 
2017-02-26 09:35:36,919 [49125028]   WARN - CPPImporter.plugin.IntentionExecutor - indexOf node 0 
2017-02-26 09:35:36,919 [49125028]   WARN - CPPImporter.plugin.UpdatePreview - Execute intention Remove 
2017-02-26 09:35:36,920 [49125029]   WARN - CPPImporter.plugin.UpdatePreview - Execute intention Keep 
2017-02-26 09:35:36,920 [49125029]   WARN - CPPImporter.plugin.IntentionExecutor - indexOf node 0 
2017-02-26 09:35:36,920 [49125029]   WARN - CPPImporter.plugin.UpdatePreview - Execute intention Remove 
2017-02-26 09:35:36,920 [49125029]   WARN - CPPImporter.plugin.UpdatePreview - Execute intention Remove 
2017-02-26 09:35:36,921 [49125030]   WARN - CPPImporter.plugin.UpdatePreview - Execute intention Remove 
2017-02-26 09:35:36,921 [49125030]   WARN - CPPImporter.plugin.UpdatePreview - Execute intention Keep 
2017-02-26 09:35:36,921 [49125030]   WARN - CPPImporter.plugin.IntentionExecutor - indexOf node 0 
2017-02-26 09:35:36,922 [49125031]   WARN - CPPImporter.plugin.UpdatePreview - Execute intention Remove 
2017-02-26 09:35:36,922 [49125031]   WARN - CPPImporter.plugin.UpdatePreview - Execute intention Remove 
2017-02-26 09:35:36,922 [49125031]   WARN - CPPImporter.plugin.UpdatePreview - Execute intention Remove 
2017-02-26 09:35:36,923 [49125032]   WARN - CPPImporter.plugin.UpdatePreview - Execute intention Remove 
2017-02-26 09:35:36,923 [49125032]   WARN - CPPImporter.plugin.UpdatePreview - Execute intention Remove 
2017-02-26 09:35:36,923 [49125032]   WARN - CPPImporter.plugin.UpdatePreview - Execute intention Remove 
2017-02-26 09:35:36,924 [49125033]   WARN - CPPImporter.plugin.UpdatePreview - Execute intention Remove 
2017-02-26 09:35:36,925 [49125034]   WARN - CPPImporter.plugin.UpdatePreview - Execute intention Remove 
2017-02-26 09:35:36,925 [49125034]   WARN - CPPImporter.plugin.UpdatePreview - Execute intention Remove 
2017-02-26 09:35:36,925 [49125034]   WARN - CPPImporter.plugin.UpdatePreview - Execute intention Remove 
2017-02-26 09:35:36,926 [49125035]   WARN - CPPImporter.plugin.UpdatePreview - Execute intention Remove 
2017-02-26 09:35:36,926 [49125035]   WARN - CPPImporter.plugin.UpdatePreview - Execute intention Remove 
2017-02-26 09:35:36,926 [49125035]   WARN - CPPImporter.plugin.UpdatePreview - Execute intention Remove 
2017-02-26 09:35:36,927 [49125036]   WARN - CPPImporter.plugin.UpdatePreview - Execute intention Remove 
2017-02-26 09:35:36,927 [49125036]   WARN - CPPImporter.plugin.UpdatePreview - Execute intention Keep 
2017-02-26 09:35:36,927 [49125036]   WARN - CPPImporter.plugin.IntentionExecutor - indexOf node 0 
2017-02-26 09:35:36,927 [49125036]   WARN - CPPImporter.plugin.UpdatePreview - Execute intention Remove 
2017-02-26 09:35:36,934 [49125043]   WARN - CPPLanguage.editor.IntentionContainer_Editor - Show 23 intentions. 
2017-02-26 09:35:48,382 [49136491]   INFO - CPPImporter.plugin.Keep_Action - [LOG] Intention Keep for 1 nodes. 
2017-02-26 09:35:48,382 [49136491]   INFO - CPPImporter.plugin.Keep_Action - [LOG] View of Keep Intention is default 
2017-02-26 09:35:48,382 [49136491]   INFO - CPPImporter.plugin.Keep_Action - Propose anti Intention for true branch 
2017-02-26 09:35:49,292 [49137401]   INFO - CPPImporter.plugin.Keep_Action - [LOG] Add anti intention 
2017-02-26 09:35:49,293 [49137402]   INFO - CPPImporter.plugin.Keep_Action - Update Preview 
2017-02-26 09:35:49,293 [49137402]   INFO - CPPImporter.plugin.UpdatePreview - Initialize future model 
2017-02-26 09:35:49,294 [49137403]   INFO - CPPImporter.plugin.UpdatePreview - Create node mapping 
2017-02-26 09:35:49,295 [49137404]   INFO - CPPImporter.plugin.UpdatePreview - Node mapping done 
2017-02-26 09:35:49,296 [49137405]   WARN - CPPImporter.plugin.UpdatePreview - Execute intention Keep 
2017-02-26 09:35:49,296 [49137405]   WARN - CPPImporter.plugin.IntentionExecutor - indexOf node 0 
2017-02-26 09:35:49,296 [49137405]   WARN - CPPImporter.plugin.UpdatePreview - Execute intention Remove 
2017-02-26 09:35:49,297 [49137406]   WARN - CPPImporter.plugin.UpdatePreview - Execute intention Keep 
2017-02-26 09:35:49,297 [49137406]   WARN - CPPImporter.plugin.IntentionExecutor - indexOf node 0 
2017-02-26 09:35:49,297 [49137406]   WARN - CPPImporter.plugin.UpdatePreview - Execute intention Remove 
2017-02-26 09:35:49,297 [49137406]   WARN - CPPImporter.plugin.UpdatePreview - Execute intention Remove 
2017-02-26 09:35:49,297 [49137406]   WARN - CPPImporter.plugin.UpdatePreview - Execute intention Remove 
2017-02-26 09:35:49,298 [49137407]   WARN - CPPImporter.plugin.UpdatePreview - Execute intention Keep 
2017-02-26 09:35:49,298 [49137407]   WARN - CPPImporter.plugin.IntentionExecutor - indexOf node 0 
2017-02-26 09:35:49,298 [49137407]   WARN - CPPImporter.plugin.UpdatePreview - Execute intention Remove 
2017-02-26 09:35:49,298 [49137407]   WARN - CPPImporter.plugin.UpdatePreview - Execute intention Remove 
2017-02-26 09:35:49,299 [49137408]   WARN - CPPImporter.plugin.UpdatePreview - Execute intention Remove 
2017-02-26 09:35:49,299 [49137408]   WARN - CPPImporter.plugin.UpdatePreview - Execute intention Remove 
2017-02-26 09:35:49,299 [49137408]   WARN - CPPImporter.plugin.UpdatePreview - Execute intention Remove 
2017-02-26 09:35:49,300 [49137409]   WARN - CPPImporter.plugin.UpdatePreview - Execute intention Remove 
2017-02-26 09:35:49,300 [49137409]   WARN - CPPImporter.plugin.UpdatePreview - Execute intention Remove 
2017-02-26 09:35:49,301 [49137410]   WARN - CPPImporter.plugin.UpdatePreview - Execute intention Remove 
2017-02-26 09:35:49,301 [49137410]   WARN - CPPImporter.plugin.UpdatePreview - Execute intention Remove 
2017-02-26 09:35:49,302 [49137411]   WARN - CPPImporter.plugin.UpdatePreview - Execute intention Remove 
2017-02-26 09:35:49,302 [49137411]   WARN - CPPImporter.plugin.UpdatePreview - Execute intention Remove 
2017-02-26 09:35:49,302 [49137411]   WARN - CPPImporter.plugin.UpdatePreview - Execute intention Remove 
2017-02-26 09:35:49,303 [49137412]   WARN - CPPImporter.plugin.UpdatePreview - Execute intention Remove 
2017-02-26 09:35:49,303 [49137412]   WARN - CPPImporter.plugin.UpdatePreview - Execute intention Remove 
2017-02-26 09:35:49,303 [49137412]   WARN - CPPImporter.plugin.UpdatePreview - Execute intention Keep 
2017-02-26 09:35:49,303 [49137412]   WARN - CPPImporter.plugin.IntentionExecutor - indexOf node 0 
2017-02-26 09:35:49,304 [49137413]   WARN - CPPImporter.plugin.UpdatePreview - Execute intention Remove 
2017-02-26 09:35:49,304 [49137413]   WARN - CPPImporter.plugin.UpdatePreview - Execute intention Keep 
2017-02-26 09:35:49,304 [49137413]   WARN - CPPImporter.plugin.IntentionExecutor - indexOf node 0 
2017-02-26 09:35:49,304 [49137413]   WARN - CPPImporter.plugin.UpdatePreview - Execute intention Remove 
2017-02-26 09:35:49,310 [49137419]   WARN - CPPLanguage.editor.IntentionContainer_Editor - Show 25 intentions. 
2017-02-26 09:35:56,280 [49144389]   INFO - CPPImporter.plugin.Keep_Action - [LOG] Intention Keep for 1 nodes. 
2017-02-26 09:35:56,280 [49144389]   INFO - CPPImporter.plugin.Keep_Action - [LOG] View of Keep Intention is default 
2017-02-26 09:35:56,281 [49144390]   INFO - CPPImporter.plugin.Keep_Action - Propose anti Intention for true branch 
2017-02-26 09:35:57,323 [49145432]   INFO - CPPImporter.plugin.Keep_Action - [LOG] Add anti intention 
2017-02-26 09:35:57,323 [49145432]   INFO - CPPImporter.plugin.Keep_Action - Update Preview 
2017-02-26 09:35:57,323 [49145432]   INFO - CPPImporter.plugin.UpdatePreview - Initialize future model 
2017-02-26 09:35:57,325 [49145434]   INFO - CPPImporter.plugin.UpdatePreview - Create node mapping 
2017-02-26 09:35:57,326 [49145435]   INFO - CPPImporter.plugin.UpdatePreview - Node mapping done 
2017-02-26 09:35:57,326 [49145435]   WARN - CPPImporter.plugin.UpdatePreview - Execute intention Keep 
2017-02-26 09:35:57,327 [49145436]   WARN - CPPImporter.plugin.IntentionExecutor - indexOf node 0 
2017-02-26 09:35:57,327 [49145436]   WARN - CPPImporter.plugin.UpdatePreview - Execute intention Remove 
2017-02-26 09:35:57,327 [49145436]   WARN - CPPImporter.plugin.UpdatePreview - Execute intention Keep 
2017-02-26 09:35:57,327 [49145436]   WARN - CPPImporter.plugin.IntentionExecutor - indexOf node 0 
2017-02-26 09:35:57,327 [49145436]   WARN - CPPImporter.plugin.UpdatePreview - Execute intention Remove 
2017-02-26 09:35:57,328 [49145437]   WARN - CPPImporter.plugin.UpdatePreview - Execute intention Remove 
2017-02-26 09:35:57,328 [49145437]   WARN - CPPImporter.plugin.UpdatePreview - Execute intention Remove 
2017-02-26 09:35:57,328 [49145437]   WARN - CPPImporter.plugin.UpdatePreview - Execute intention Keep 
2017-02-26 09:35:57,328 [49145437]   WARN - CPPImporter.plugin.IntentionExecutor - indexOf node 0 
2017-02-26 09:35:57,329 [49145438]   WARN - CPPImporter.plugin.UpdatePreview - Execute intention Remove 
2017-02-26 09:35:57,329 [49145438]   WARN - CPPImporter.plugin.UpdatePreview - Execute intention Remove 
2017-02-26 09:35:57,329 [49145438]   WARN - CPPImporter.plugin.UpdatePreview - Execute intention Remove 
2017-02-26 09:35:57,330 [49145439]   WARN - CPPImporter.plugin.UpdatePreview - Execute intention Remove 
2017-02-26 09:35:57,330 [49145439]   WARN - CPPImporter.plugin.UpdatePreview - Execute intention Remove 
2017-02-26 09:35:57,330 [49145439]   WARN - CPPImporter.plugin.UpdatePreview - Execute intention Remove 
2017-02-26 09:35:57,331 [49145440]   WARN - CPPImporter.plugin.UpdatePreview - Execute intention Remove 
2017-02-26 09:35:57,331 [49145440]   WARN - CPPImporter.plugin.UpdatePreview - Execute intention Remove 
2017-02-26 09:35:57,332 [49145441]   WARN - CPPImporter.plugin.UpdatePreview - Execute intention Remove 
2017-02-26 09:35:57,332 [49145441]   WARN - CPPImporter.plugin.UpdatePreview - Execute intention Remove 
2017-02-26 09:35:57,333 [49145442]   WARN - CPPImporter.plugin.UpdatePreview - Execute intention Remove 
2017-02-26 09:35:57,333 [49145442]   WARN - CPPImporter.plugin.UpdatePreview - Execute intention Remove 
2017-02-26 09:35:57,333 [49145442]   WARN - CPPImporter.plugin.UpdatePreview - Execute intention Remove 
2017-02-26 09:35:57,334 [49145443]   WARN - CPPImporter.plugin.UpdatePreview - Execute intention Remove 
2017-02-26 09:35:57,334 [49145443]   WARN - CPPImporter.plugin.UpdatePreview - Execute intention Keep 
2017-02-26 09:35:57,334 [49145443]   WARN - CPPImporter.plugin.IntentionExecutor - indexOf node 0 
2017-02-26 09:35:57,334 [49145443]   WARN - CPPImporter.plugin.UpdatePreview - Execute intention Remove 
2017-02-26 09:35:57,334 [49145443]   WARN - CPPImporter.plugin.UpdatePreview - Execute intention Keep 
2017-02-26 09:35:57,335 [49145444]   WARN - CPPImporter.plugin.IntentionExecutor - indexOf node 0 
2017-02-26 09:35:57,335 [49145444]   WARN - CPPImporter.plugin.UpdatePreview - Execute intention Remove 
2017-02-26 09:35:57,335 [49145444]   WARN - CPPImporter.plugin.UpdatePreview - Execute intention Keep 
2017-02-26 09:35:57,335 [49145444]   WARN - CPPImporter.plugin.IntentionExecutor - indexOf node 0 
2017-02-26 09:35:57,335 [49145444]   WARN - CPPImporter.plugin.UpdatePreview - Execute intention Remove 
2017-02-26 09:35:57,361 [49145470]   WARN - CPPLanguage.editor.IntentionContainer_Editor - Show 27 intentions. 
2017-02-26 09:36:06,241 [49154350]   INFO - CPPImporter.plugin.Keep_Action - [LOG] Intention Keep for 1 nodes. 
2017-02-26 09:36:06,241 [49154350]   INFO - CPPImporter.plugin.Keep_Action - [LOG] View of Keep Intention is default 
2017-02-26 09:36:06,242 [49154351]   INFO - CPPImporter.plugin.Keep_Action - Propose anti Intention for true branch 
2017-02-26 09:36:07,244 [49155353]   INFO - CPPImporter.plugin.Keep_Action - [LOG] Add anti intention 
2017-02-26 09:36:07,244 [49155353]   INFO - CPPImporter.plugin.Keep_Action - Update Preview 
2017-02-26 09:36:07,244 [49155353]   INFO - CPPImporter.plugin.UpdatePreview - Initialize future model 
2017-02-26 09:36:07,246 [49155355]   INFO - CPPImporter.plugin.UpdatePreview - Create node mapping 
2017-02-26 09:36:07,246 [49155355]   INFO - CPPImporter.plugin.UpdatePreview - Node mapping done 
2017-02-26 09:36:07,247 [49155356]   WARN - CPPImporter.plugin.UpdatePreview - Execute intention Keep 
2017-02-26 09:36:07,248 [49155357]   WARN - CPPImporter.plugin.IntentionExecutor - indexOf node 0 
2017-02-26 09:36:07,248 [49155357]   WARN - CPPImporter.plugin.UpdatePreview - Execute intention Remove 
2017-02-26 09:36:07,248 [49155357]   WARN - CPPImporter.plugin.UpdatePreview - Execute intention Keep 
2017-02-26 09:36:07,248 [49155357]   WARN - CPPImporter.plugin.IntentionExecutor - indexOf node 0 
2017-02-26 09:36:07,248 [49155357]   WARN - CPPImporter.plugin.UpdatePreview - Execute intention Remove 
2017-02-26 09:36:07,249 [49155358]   WARN - CPPImporter.plugin.UpdatePreview - Execute intention Remove 
2017-02-26 09:36:07,249 [49155358]   WARN - CPPImporter.plugin.UpdatePreview - Execute intention Remove 
2017-02-26 09:36:07,249 [49155358]   WARN - CPPImporter.plugin.UpdatePreview - Execute intention Keep 
2017-02-26 09:36:07,249 [49155358]   WARN - CPPImporter.plugin.IntentionExecutor - indexOf node 0 
2017-02-26 09:36:07,250 [49155359]   WARN - CPPImporter.plugin.UpdatePreview - Execute intention Remove 
2017-02-26 09:36:07,250 [49155359]   WARN - CPPImporter.plugin.UpdatePreview - Execute intention Remove 
2017-02-26 09:36:07,250 [49155359]   WARN - CPPImporter.plugin.UpdatePreview - Execute intention Remove 
2017-02-26 09:36:07,251 [49155360]   WARN - CPPImporter.plugin.UpdatePreview - Execute intention Remove 
2017-02-26 09:36:07,251 [49155360]   WARN - CPPImporter.plugin.UpdatePreview - Execute intention Remove 
2017-02-26 09:36:07,251 [49155360]   WARN - CPPImporter.plugin.UpdatePreview - Execute intention Remove 
2017-02-26 09:36:07,252 [49155361]   WARN - CPPImporter.plugin.UpdatePreview - Execute intention Remove 
2017-02-26 09:36:07,253 [49155362]   WARN - CPPImporter.plugin.UpdatePreview - Execute intention Remove 
2017-02-26 09:36:07,253 [49155362]   WARN - CPPImporter.plugin.UpdatePreview - Execute intention Remove 
2017-02-26 09:36:07,253 [49155362]   WARN - CPPImporter.plugin.UpdatePreview - Execute intention Remove 
2017-02-26 09:36:07,254 [49155363]   WARN - CPPImporter.plugin.UpdatePreview - Execute intention Remove 
2017-02-26 09:36:07,254 [49155363]   WARN - CPPImporter.plugin.UpdatePreview - Execute intention Remove 
2017-02-26 09:36:07,254 [49155363]   WARN - CPPImporter.plugin.UpdatePreview - Execute intention Remove 
2017-02-26 09:36:07,255 [49155364]   WARN - CPPImporter.plugin.UpdatePreview - Execute intention Remove 
2017-02-26 09:36:07,255 [49155364]   WARN - CPPImporter.plugin.UpdatePreview - Execute intention Keep 
2017-02-26 09:36:07,255 [49155364]   WARN - CPPImporter.plugin.IntentionExecutor - indexOf node 0 
2017-02-26 09:36:07,255 [49155364]   WARN - CPPImporter.plugin.UpdatePreview - Execute intention Remove 
2017-02-26 09:36:07,256 [49155365]   WARN - CPPImporter.plugin.UpdatePreview - Execute intention Keep 
2017-02-26 09:36:07,256 [49155365]   WARN - CPPImporter.plugin.IntentionExecutor - indexOf node 0 
2017-02-26 09:36:07,256 [49155365]   WARN - CPPImporter.plugin.UpdatePreview - Execute intention Remove 
2017-02-26 09:36:07,256 [49155365]   WARN - CPPImporter.plugin.UpdatePreview - Execute intention Keep 
2017-02-26 09:36:07,256 [49155365]   WARN - CPPImporter.plugin.IntentionExecutor - indexOf node 0 
2017-02-26 09:36:07,256 [49155365]   WARN - CPPImporter.plugin.UpdatePreview - Execute intention Remove 
2017-02-26 09:36:07,257 [49155366]   WARN - CPPImporter.plugin.UpdatePreview - Execute intention Keep 
2017-02-26 09:36:07,257 [49155366]   WARN - CPPImporter.plugin.IntentionExecutor - indexOf node 0 
2017-02-26 09:36:07,257 [49155366]   WARN - CPPImporter.plugin.UpdatePreview - Execute intention Remove 
2017-02-26 09:36:07,263 [49155372]   WARN - CPPLanguage.editor.IntentionContainer_Editor - Show 29 intentions. 
2017-02-26 09:36:24,779 [49172888]   WARN - CPPImporter.plugin.UpdatePreview_Action - Execute Intentions 
2017-02-26 09:36:24,779 [49172888]   INFO - CPPImporter.plugin.UpdatePreview - Initialize future model 
2017-02-26 09:36:24,781 [49172890]   INFO - CPPImporter.plugin.UpdatePreview - Create node mapping 
2017-02-26 09:36:24,782 [49172891]   INFO - CPPImporter.plugin.UpdatePreview - Node mapping done 
2017-02-26 09:36:24,783 [49172892]   WARN - CPPImporter.plugin.UpdatePreview - Execute intention Keep 
2017-02-26 09:36:24,783 [49172892]   WARN - CPPImporter.plugin.IntentionExecutor - indexOf node 0 
2017-02-26 09:36:24,783 [49172892]   WARN - CPPImporter.plugin.UpdatePreview - Execute intention Remove 
2017-02-26 09:36:24,784 [49172893]   WARN - CPPImporter.plugin.UpdatePreview - Execute intention Keep 
2017-02-26 09:36:24,784 [49172893]   WARN - CPPImporter.plugin.IntentionExecutor - indexOf node 0 
2017-02-26 09:36:24,784 [49172893]   WARN - CPPImporter.plugin.UpdatePreview - Execute intention Remove 
2017-02-26 09:36:24,784 [49172893]   WARN - CPPImporter.plugin.UpdatePreview - Execute intention Remove 
2017-02-26 09:36:24,785 [49172894]   WARN - CPPImporter.plugin.UpdatePreview - Execute intention Remove 
2017-02-26 09:36:24,785 [49172894]   WARN - CPPImporter.plugin.UpdatePreview - Execute intention Keep 
2017-02-26 09:36:24,785 [49172894]   WARN - CPPImporter.plugin.IntentionExecutor - indexOf node 0 
2017-02-26 09:36:24,785 [49172894]   WARN - CPPImporter.plugin.UpdatePreview - Execute intention Remove 
2017-02-26 09:36:24,786 [49172895]   WARN - CPPImporter.plugin.UpdatePreview - Execute intention Remove 
2017-02-26 09:36:24,786 [49172895]   WARN - CPPImporter.plugin.UpdatePreview - Execute intention Remove 
2017-02-26 09:36:24,787 [49172896]   WARN - CPPImporter.plugin.UpdatePreview - Execute intention Remove 
2017-02-26 09:36:24,787 [49172896]   WARN - CPPImporter.plugin.UpdatePreview - Execute intention Remove 
2017-02-26 09:36:24,787 [49172896]   WARN - CPPImporter.plugin.UpdatePreview - Execute intention Remove 
2017-02-26 09:36:24,788 [49172897]   WARN - CPPImporter.plugin.UpdatePreview - Execute intention Remove 
2017-02-26 09:36:24,788 [49172897]   WARN - CPPImporter.plugin.UpdatePreview - Execute intention Remove 
2017-02-26 09:36:24,789 [49172898]   WARN - CPPImporter.plugin.UpdatePreview - Execute intention Remove 
2017-02-26 09:36:24,789 [49172898]   WARN - CPPImporter.plugin.UpdatePreview - Execute intention Remove 
2017-02-26 09:36:24,789 [49172898]   WARN - CPPImporter.plugin.UpdatePreview - Execute intention Remove 
2017-02-26 09:36:24,790 [49172899]   WARN - CPPImporter.plugin.UpdatePreview - Execute intention Remove 
2017-02-26 09:36:24,790 [49172899]   WARN - CPPImporter.plugin.UpdatePreview - Execute intention Remove 
2017-02-26 09:36:24,790 [49172899]   WARN - CPPImporter.plugin.UpdatePreview - Execute intention Remove 
2017-02-26 09:36:24,791 [49172900]   WARN - CPPImporter.plugin.UpdatePreview - Execute intention Keep 
2017-02-26 09:36:24,791 [49172900]   WARN - CPPImporter.plugin.IntentionExecutor - indexOf node 0 
2017-02-26 09:36:24,791 [49172900]   WARN - CPPImporter.plugin.UpdatePreview - Execute intention Remove 
2017-02-26 09:36:24,791 [49172900]   WARN - CPPImporter.plugin.UpdatePreview - Execute intention Keep 
2017-02-26 09:36:24,791 [49172900]   WARN - CPPImporter.plugin.IntentionExecutor - indexOf node 0 
2017-02-26 09:36:24,792 [49172901]   WARN - CPPImporter.plugin.UpdatePreview - Execute intention Remove 
2017-02-26 09:36:24,792 [49172901]   WARN - CPPImporter.plugin.UpdatePreview - Execute intention Keep 
2017-02-26 09:36:24,792 [49172901]   WARN - CPPImporter.plugin.IntentionExecutor - indexOf node 0 
2017-02-26 09:36:24,792 [49172901]   WARN - CPPImporter.plugin.UpdatePreview - Execute intention Remove 
2017-02-26 09:36:24,793 [49172902]   WARN - CPPImporter.plugin.UpdatePreview - Execute intention Keep 
2017-02-26 09:36:24,793 [49172902]   WARN - CPPImporter.plugin.IntentionExecutor - indexOf node 0 
2017-02-26 09:36:24,793 [49172902]   WARN - CPPImporter.plugin.UpdatePreview - Execute intention Remove 
2017-02-26 09:36:24,819 [49172928]   WARN - CPPLanguage.editor.IntentionContainer_Editor - Show 29 intentions. 
2017-02-26 09:36:32,354 [49180463]   WARN - CPPImporter.plugin.CommitIntentions_Action - Commit Intentions 
2017-02-26 09:36:32,354 [49180463]   INFO - CPPImporter.plugin.UpdatePreview - Initialize future model 
2017-02-26 09:36:32,357 [49180466]   INFO - CPPImporter.plugin.UpdatePreview - Create node mapping 
2017-02-26 09:36:32,357 [49180466]   INFO - CPPImporter.plugin.UpdatePreview - Node mapping done 
2017-02-26 09:36:32,359 [49180468]   WARN - CPPImporter.plugin.UpdatePreview - Execute intention Keep 
2017-02-26 09:36:32,359 [49180468]   WARN - CPPImporter.plugin.IntentionExecutor - indexOf node 0 
2017-02-26 09:36:32,359 [49180468]   WARN - CPPImporter.plugin.UpdatePreview - Execute intention Remove 
2017-02-26 09:36:32,359 [49180468]   WARN - CPPImporter.plugin.UpdatePreview - Execute intention Keep 
2017-02-26 09:36:32,360 [49180469]   WARN - CPPImporter.plugin.IntentionExecutor - indexOf node 0 
2017-02-26 09:36:32,360 [49180469]   WARN - CPPImporter.plugin.UpdatePreview - Execute intention Remove 
2017-02-26 09:36:32,360 [49180469]   WARN - CPPImporter.plugin.UpdatePreview - Execute intention Remove 
2017-02-26 09:36:32,360 [49180469]   WARN - CPPImporter.plugin.UpdatePreview - Execute intention Remove 
2017-02-26 09:36:32,361 [49180470]   WARN - CPPImporter.plugin.UpdatePreview - Execute intention Keep 
2017-02-26 09:36:32,361 [49180470]   WARN - CPPImporter.plugin.IntentionExecutor - indexOf node 0 
2017-02-26 09:36:32,361 [49180470]   WARN - CPPImporter.plugin.UpdatePreview - Execute intention Remove 
2017-02-26 09:36:32,361 [49180470]   WARN - CPPImporter.plugin.UpdatePreview - Execute intention Remove 
2017-02-26 09:36:32,362 [49180471]   WARN - CPPImporter.plugin.UpdatePreview - Execute intention Remove 
2017-02-26 09:36:32,362 [49180471]   WARN - CPPImporter.plugin.UpdatePreview - Execute intention Remove 
2017-02-26 09:36:32,363 [49180472]   WARN - CPPImporter.plugin.UpdatePreview - Execute intention Remove 
2017-02-26 09:36:32,363 [49180472]   WARN - CPPImporter.plugin.UpdatePreview - Execute intention Remove 
2017-02-26 09:36:32,363 [49180472]   WARN - CPPImporter.plugin.UpdatePreview - Execute intention Remove 
2017-02-26 09:36:32,364 [49180473]   WARN - CPPImporter.plugin.UpdatePreview - Execute intention Remove 
2017-02-26 09:36:32,364 [49180473]   WARN - CPPImporter.plugin.UpdatePreview - Execute intention Remove 
2017-02-26 09:36:32,365 [49180474]   WARN - CPPImporter.plugin.UpdatePreview - Execute intention Remove 
2017-02-26 09:36:32,365 [49180474]   WARN - CPPImporter.plugin.UpdatePreview - Execute intention Remove 
2017-02-26 09:36:32,365 [49180474]   WARN - CPPImporter.plugin.UpdatePreview - Execute intention Remove 
2017-02-26 09:36:32,366 [49180475]   WARN - CPPImporter.plugin.UpdatePreview - Execute intention Remove 
2017-02-26 09:36:32,366 [49180475]   WARN - CPPImporter.plugin.UpdatePreview - Execute intention Remove 
2017-02-26 09:36:32,366 [49180475]   WARN - CPPImporter.plugin.UpdatePreview - Execute intention Keep 
2017-02-26 09:36:32,366 [49180475]   WARN - CPPImporter.plugin.IntentionExecutor - indexOf node 0 
2017-02-26 09:36:32,367 [49180476]   WARN - CPPImporter.plugin.UpdatePreview - Execute intention Remove 
2017-02-26 09:36:32,367 [49180476]   WARN - CPPImporter.plugin.UpdatePreview - Execute intention Keep 
2017-02-26 09:36:32,367 [49180476]   WARN - CPPImporter.plugin.IntentionExecutor - indexOf node 0 
2017-02-26 09:36:32,367 [49180476]   WARN - CPPImporter.plugin.UpdatePreview - Execute intention Remove 
2017-02-26 09:36:32,368 [49180477]   WARN - CPPImporter.plugin.UpdatePreview - Execute intention Keep 
2017-02-26 09:36:32,368 [49180477]   WARN - CPPImporter.plugin.IntentionExecutor - indexOf node 0 
2017-02-26 09:36:32,368 [49180477]   WARN - CPPImporter.plugin.UpdatePreview - Execute intention Remove 
2017-02-26 09:36:32,368 [49180477]   WARN - CPPImporter.plugin.UpdatePreview - Execute intention Keep 
2017-02-26 09:36:32,368 [49180477]   WARN - CPPImporter.plugin.IntentionExecutor - indexOf node 0 
2017-02-26 09:36:32,368 [49180477]   WARN - CPPImporter.plugin.UpdatePreview - Execute intention Remove 
2017-02-26 09:36:32,454 [49180563]   WARN - CPPLanguage.editor.IntentionContainer_Editor - Show 0 intentions. 
2017-02-26 09:36:43,857 [49191966]   INFO - CPPImporter.plugin.Export_Action - [LOG] Export to C:\ITU\MyRepositories\mps-re-engineering\marlin-evaluation\examples\tasks\Marlin_STM32\results\mps\planner_merged.cpp 
2017-02-26 09:36:55,395 [49203504]   INFO - jetbrains.mps.extapi.model.EditableSModelBase - Saving model Examples.Imported2 
2017-02-26 09:36:55,525 [49203634]   INFO - jetbrains.mps.smodel.MPSModuleRepository - Saving of the repository took 0,131 s 
2017-02-26 09:36:57,162 [49205271]   INFO - jetbrains.mps.smodel.MPSModuleRepository - Saving of the repository took 0,001 s 